<svg width="23" height="23" viewBox="0 0 23 23" fill="none" xmlns="http://www.w3.org/2000/svg">
<path d="M12.8678 23V13.1853L17.7313 0H23L18.9471 12.2931H23V23H12.8678ZM0 23V13.1853L4.86344 0H10.1322L6.07929 12.2931H10.1322V23H0Z" fill="url(#paint0_linear_4772_3694)"/>
<defs>
<linearGradient id="paint0_linear_4772_3694" x1="18.4307" y1="6.84052" x2="13.6897" y2="26.3301" gradientUnits="userSpaceOnUse">
<stop stop-color="#FCCD00"/>
<stop offset="1" stop-color="#F2A900"/>
</linearGradient>
</defs>
</svg>
