<svg width="100" height="74" viewBox="0 0 100 74" fill="none" xmlns="http://www.w3.org/2000/svg">
<g filter="url(#filter0_d_4772_3634)">
<path d="M68.7313 53.1507H30.8536C16.373 53.1507 4.5 41.3315 4.5 26.8536C4.5 12.3744 16.3744 0.5 30.8536 0.5H68.7879C83.2099 0.5 95.0849 12.3737 95.0849 26.8536C95.0849 41.3315 83.2119 53.1507 68.7313 53.1507Z" fill="white" stroke="#FCCC01"/>
<path d="M87.8275 60.8385C88.5088 62.1627 89.3183 63.3778 90.2812 64.3419C89.8908 64.2592 89.4531 64.1638 88.9753 64.0556C86.9222 63.5905 84.1333 62.8892 81.1866 61.9444C78.2377 60.9989 75.1437 59.8137 72.4746 58.3837C69.7954 56.9483 67.597 55.2938 66.3791 53.4336C65.7759 52.509 65.6361 51.7688 65.7545 51.1709C65.8741 50.5679 66.2762 50.0081 66.9646 49.4893C68.3603 48.4377 70.7403 47.699 73.3756 47.1952C75.989 46.6956 78.7708 46.4411 80.9052 46.3119C81.971 46.2474 82.8725 46.2143 83.507 46.1973C83.7177 46.1916 83.8989 46.1878 84.0469 46.1851C84.0537 46.2555 84.0615 46.3333 84.0702 46.4181C84.116 46.8633 84.1886 47.5021 84.2964 48.2797C84.5119 49.8341 84.8683 51.9483 85.4323 54.183C85.9956 56.4149 86.7701 58.7834 87.8275 60.8385Z" fill="white" stroke="#FCCC01"/>
<path d="M32.7743 37.0862C32.7743 37.3689 31.8697 37.595 30.0606 37.6515C28.2515 37.7081 27.2905 37.6515 27.2905 37.3123L27.0078 31.0936L23.22 31.2632L23.5027 37.5385C23.5027 37.8211 22.5982 38.0473 20.7891 38.1038C18.98 38.1603 18.0189 38.1038 18.0189 37.7646L17.1709 19.7303C17.1709 19.3345 18.0754 19.1084 19.8845 19.0519C21.6936 18.9953 22.6547 19.1084 22.6547 19.5041L22.9374 25.8925L26.7251 25.7229L26.4425 19.3911C26.4425 19.1649 26.8947 18.9388 27.7993 18.7692C28.2515 18.7127 28.7038 18.6561 29.2126 18.6561H30.626C31.5305 18.7127 31.9828 18.8823 32.0393 19.1649L32.7743 37.0862Z" fill="url(#paint0_linear_4772_3634)"/>
<path d="M45.6634 36.2382C44.5328 36.9731 43.1194 37.3689 41.3103 37.4254C39.5013 37.4819 37.9748 36.9731 36.6746 35.7859C35.3743 34.5987 34.6959 32.9592 34.5828 30.7544C34.4697 28.6061 34.9785 26.797 36.1092 25.4402C37.2399 24.0834 38.7098 23.3485 40.5189 23.2354C42.3279 23.1789 43.7413 23.5746 44.8154 24.4226C45.8331 25.3272 46.3984 26.4013 46.4549 27.7581C46.568 30.6979 44.985 32.2243 41.593 32.3939L39.7274 32.507C39.7274 33.0723 39.897 33.4115 40.2362 33.6376C40.5189 33.8072 40.9711 33.9203 41.593 33.8638C42.8368 33.8072 44.0805 33.468 45.1546 32.8462C45.1546 32.8462 45.2677 32.9592 45.4373 33.2419C45.8896 33.9768 46.1723 34.6553 46.1723 35.1641C46.1157 35.6729 46.0027 36.0686 45.6634 36.2382ZM41.8757 28.4931C41.8191 27.7581 41.4234 27.3624 40.6885 27.4189C40.3493 27.4189 40.0666 27.532 39.8405 27.7581C39.6143 27.9843 39.5013 28.2669 39.5013 28.6627L39.5578 29.5107L41.0277 29.4541C41.6495 29.4541 41.9322 29.1149 41.8757 28.4931Z" fill="url(#paint1_linear_4772_3634)"/>
<path d="M53.5788 36.4078C53.5788 36.5774 52.6743 36.6905 50.8087 36.8036C49.3388 36.8601 48.6039 36.8036 48.6039 36.6905L47.7559 18.0908C47.7559 17.8082 48.6039 17.6386 50.3564 17.582C51.8828 17.582 52.6743 17.6386 52.6743 17.7516L53.5788 36.4078Z" fill="url(#paint2_linear_4772_3634)"/>
<path d="M60.9851 36.0686C60.9851 36.2382 60.0806 36.3512 58.2149 36.4643C56.7451 36.5209 56.0101 36.4643 56.0101 36.3512L55.1621 17.8081C55.1621 17.5255 56.0101 17.3559 57.7627 17.2993C59.2891 17.2993 60.0806 17.3558 60.0806 17.4689L60.9851 36.0686Z" fill="url(#paint3_linear_4772_3634)"/>
<path d="M64.547 34.4857C63.3598 33.2985 62.6814 31.6024 62.6248 29.3411C62.5118 27.1363 63.0206 25.3837 64.0947 24.0834C65.1689 22.7831 66.6953 22.1047 68.6174 21.9917C70.5396 21.8786 72.1225 22.4439 73.2532 23.6877C74.4404 24.8749 75.0623 26.5709 75.1754 28.8323C75.2884 31.0371 74.7796 32.7896 73.7055 34.0899C72.6313 35.3902 71.1615 36.0686 69.2393 36.1817C67.3172 36.2382 65.7342 35.6729 64.547 34.4857ZM68.787 26.5709C67.7694 26.6275 67.2606 27.4755 67.3737 29.1715C67.4302 30.8675 67.9956 31.659 69.0132 31.6024C70.0308 31.5459 70.5396 30.6979 70.4265 29.0019C70.37 27.3059 69.8046 26.5144 68.787 26.5709Z" fill="url(#paint4_linear_4772_3634)"/>
<path d="M77.2098 31.4328C77.2098 31.3197 78.0578 31.2067 79.6973 31.1501C81.3933 31.0936 82.2413 31.0936 82.2413 31.2067L82.4109 35.1075C82.4109 35.2771 81.5629 35.4467 79.9234 35.5032C78.2274 35.5598 77.3794 35.5598 77.3794 35.4467L77.2098 31.4328ZM81.6194 29.5672C81.6194 29.6802 80.9975 29.7368 79.6973 29.7933C78.397 29.8498 77.7751 29.8498 77.7186 29.7368L76.5879 16.3948C76.5879 16.2252 77.4359 16.1121 79.0754 16.0556C80.7149 15.999 81.5629 15.999 81.5629 16.1121L81.6194 29.5672Z" fill="url(#paint5_linear_4772_3634)"/>
<path d="M80.9424 26.9666C80.9424 26.9666 79.8682 17.2428 80.3771 16.9601C80.9424 16.734 81.1685 22.0482 80.9424 26.9666Z" fill="white"/>
<path d="M74.3845 27.645C74.3845 27.0797 74.328 25.5533 73.1973 24.3095C72.2362 23.2354 70.936 22.8962 70.3706 22.9527C70.2576 22.9527 69.8618 23.0093 69.8618 23.1789C69.8053 23.5181 71.3882 23.7442 72.5189 24.5922C73.1408 25.101 73.8757 25.949 74.3845 27.645Z" fill="white"/>
<path d="M59.2323 17.582C59.8542 17.582 60.0803 28.4931 59.9107 30.4718C59.7411 32.3939 59.0061 17.582 59.2323 17.582Z" fill="white"/>
<path d="M45.7779 26.91C45.4953 25.4401 43.8558 23.8006 42.7816 24.0268C41.7075 24.3094 44.0254 25.1009 44.8734 25.7793C45.6649 26.5143 45.7779 26.91 45.7779 26.91Z" fill="white"/>
<path d="M36.5628 35.2771C37.8066 36.6339 39.5026 36.9166 39.5591 36.8601C39.5591 36.8035 37.637 36.5209 36.6194 34.9945C36.1671 34.2595 35.6583 32.9592 35.3756 32.9592C35.3756 32.9592 35.3756 32.9592 35.3191 32.9592C35.1495 33.0723 35.7714 34.4291 36.5628 35.2771Z" fill="white"/>
<path d="M32.0965 35.0509C31.7008 35.5597 31.6443 21.822 31.4181 20.4652C31.4181 20.4652 31.4181 20.4652 31.4181 20.3521C31.4181 20.239 31.4181 20.0694 31.4181 19.7302C31.4181 19.6737 31.3616 19.391 31.3051 19.3345C30.7963 18.8822 28.5349 19.1083 29.496 18.9953C30.344 18.8822 31.3051 18.9953 31.5877 19.0518C31.7008 19.1083 31.7008 19.2779 31.7008 19.391C32.1531 22.1046 32.6053 34.316 32.0965 35.0509Z" fill="white"/>
</g>
<path d="M64 47V52L67.5 53.5L83.5 48.5L86 46L81 42L64 47Z" fill="white"/>
<defs>
<filter id="filter0_d_4772_3634" x="0" y="0" width="99.585" height="73.2402" filterUnits="userSpaceOnUse" color-interpolation-filters="sRGB">
<feFlood flood-opacity="0" result="BackgroundImageFix"/>
<feColorMatrix in="SourceAlpha" type="matrix" values="0 0 0 0 0 0 0 0 0 0 0 0 0 0 0 0 0 0 127 0" result="hardAlpha"/>
<feOffset dy="4"/>
<feGaussianBlur stdDeviation="2"/>
<feComposite in2="hardAlpha" operator="out"/>
<feColorMatrix type="matrix" values="0 0 0 0 0 0 0 0 0 0 0 0 0 0 0 0 0 0 0.25 0"/>
<feBlend mode="normal" in2="BackgroundImageFix" result="effect1_dropShadow_4772_3634"/>
<feBlend mode="normal" in="SourceGraphic" in2="effect1_dropShadow_4772_3634" result="shape"/>
</filter>
<linearGradient id="paint0_linear_4772_3634" x1="29.6744" y1="24.4458" x2="24.8191" y2="40.444" gradientUnits="userSpaceOnUse">
<stop stop-color="#FCCD00"/>
<stop offset="1" stop-color="#F2A900"/>
</linearGradient>
<linearGradient id="paint1_linear_4772_3634" x1="44.0978" y1="27.4532" x2="40.6844" y2="39.2062" gradientUnits="userSpaceOnUse">
<stop stop-color="#FCCD00"/>
<stop offset="1" stop-color="#F2A900"/>
</linearGradient>
<linearGradient id="paint2_linear_4772_3634" x1="52.422" y1="23.3054" x2="43.988" y2="33.7967" gradientUnits="userSpaceOnUse">
<stop stop-color="#FCCD00"/>
<stop offset="1" stop-color="#F2A900"/>
</linearGradient>
<linearGradient id="paint3_linear_4772_3634" x1="59.8283" y1="23.0058" x2="51.4243" y2="33.4905" gradientUnits="userSpaceOnUse">
<stop stop-color="#FCCD00"/>
<stop offset="1" stop-color="#F2A900"/>
</linearGradient>
<linearGradient id="paint4_linear_4772_3634" x1="72.6913" y1="26.2032" x2="69.4341" y2="38.0603" gradientUnits="userSpaceOnUse">
<stop stop-color="#FCCD00"/>
<stop offset="1" stop-color="#F2A900"/>
</linearGradient>
<linearGradient id="paint5_linear_4772_3634" x1="81.2541" y1="21.8245" x2="72.6725" y2="32.3472" gradientUnits="userSpaceOnUse">
<stop stop-color="#FCCD00"/>
<stop offset="1" stop-color="#F2A900"/>
</linearGradient>
</defs>
</svg>
