<svg width="325" height="416" viewBox="0 0 325 416" fill="none" xmlns="http://www.w3.org/2000/svg">
<g filter="url(#filter0_d_4772_3624)">
<rect x="4" width="317" height="408" rx="5" fill="white"/>
</g>
<path d="M73.77 188L66.6 167.99H61.2L53.91 188H59.13L60.42 184.52H67.26L68.49 188H73.77ZM65.97 180.56H61.74L63.87 174.2L65.97 180.56ZM89.1982 187.94V174.41H84.6382V175.82C83.6182 174.5 82.3882 174.02 80.7982 174.02C77.0482 174.02 74.2282 177.17 74.2282 181.4C74.2282 185.45 76.8382 188.3 80.5882 188.3C82.2382 188.3 83.2882 187.82 84.6382 186.47V188.06C84.6382 190.1 83.5582 191.33 81.6982 191.33C80.5282 191.33 79.8382 190.88 79.5082 189.98H74.3782C74.7082 193.04 77.7982 195.17 81.6982 195.17C86.4982 195.17 89.1982 192.47 89.1982 187.94ZM84.8782 181.16C84.8782 182.87 83.5582 184.25 81.9382 184.25C80.2882 184.25 78.9682 182.87 78.9682 181.16C78.9682 179.45 80.2882 178.07 81.9382 178.07C83.5582 178.07 84.8782 179.45 84.8782 181.16ZM105.499 182.06V181.55C105.499 176.87 102.859 173.9 98.539 173.9C94.039 173.9 91.279 176.75 91.279 181.28C91.279 185.66 94.189 188.51 98.629 188.51C102.049 188.51 104.689 186.86 105.319 183.83H100.909C100.339 184.76 99.769 185.09 98.689 185.09C96.829 185.09 95.899 184.1 95.899 182.06H105.499ZM101.239 179.27H96.019C96.259 177.89 97.189 177.08 98.569 177.08C99.949 177.08 100.939 177.92 101.239 179.27ZM121.211 188V179.36C121.211 176.18 119.561 174.08 116.291 174.08C114.401 174.08 113.111 174.8 112.151 176.12V174.41H107.591V188H112.151V180.71C112.151 178.94 113.021 177.92 114.551 177.92C116.471 177.92 116.651 179.33 116.651 181.13V188H121.211ZM138.331 188V165.11H133.771V175.73C132.721 174.5 131.341 173.96 129.751 173.96C126.091 173.96 123.271 177.11 123.271 181.16C123.271 185.3 126.121 188.45 129.811 188.45C131.491 188.45 132.931 187.76 133.771 186.5V188H138.331ZM133.921 181.22C133.921 182.93 132.601 184.31 130.981 184.31C129.331 184.31 128.011 182.93 128.011 181.22C128.011 179.48 129.331 178.1 130.981 178.1C132.601 178.1 133.921 179.51 133.921 181.22ZM155.499 188V174.41H150.939V175.73C149.889 174.5 148.509 173.96 146.919 173.96C143.259 173.96 140.439 177.11 140.439 181.16C140.439 185.3 143.289 188.45 146.979 188.45C148.659 188.45 150.099 187.76 150.939 186.5V188H155.499ZM151.089 181.22C151.089 182.93 149.769 184.31 148.149 184.31C146.499 184.31 145.179 182.93 145.179 181.22C145.179 179.48 146.499 178.1 148.149 178.1C149.769 178.1 151.089 179.51 151.089 181.22ZM180.255 188V165.11H175.695V175.73C174.645 174.5 173.265 173.96 171.675 173.96C168.015 173.96 165.195 177.11 165.195 181.16C165.195 185.3 168.045 188.45 171.735 188.45C173.415 188.45 174.855 187.76 175.695 186.5V188H180.255ZM175.845 181.22C175.845 182.93 174.525 184.31 172.905 184.31C171.255 184.31 169.935 182.93 169.935 181.22C169.935 179.48 171.255 178.1 172.905 178.1C174.525 178.1 175.845 179.51 175.845 181.22ZM198.743 174.41H193.523L190.163 181.37L186.713 174.41H181.403L187.643 186.14L183.083 195.14H188.213L198.743 174.41ZM213.408 188V179.36C213.408 176.18 211.758 174.08 208.488 174.08C206.598 174.08 205.308 174.8 204.348 176.12V174.41H199.788V188H204.348V180.71C204.348 178.94 205.218 177.92 206.748 177.92C208.668 177.92 208.848 179.33 208.848 181.13V188H213.408ZM230.528 188V174.41H225.968V175.73C224.918 174.5 223.538 173.96 221.948 173.96C218.288 173.96 215.468 177.11 215.468 181.16C215.468 185.3 218.318 188.45 222.008 188.45C223.688 188.45 225.128 187.76 225.968 186.5V188H230.528ZM226.118 181.22C226.118 182.93 224.798 184.31 223.178 184.31C221.528 184.31 220.208 182.93 220.208 181.22C220.208 179.48 221.528 178.1 223.178 178.1C224.798 178.1 226.118 179.51 226.118 181.22ZM250.846 188H255.406V179.15C255.406 177.71 255.166 176.75 254.686 176C253.936 174.86 252.616 174.11 251.086 174.11C249.196 174.11 247.726 174.98 246.706 176.69C245.926 174.89 244.336 174.08 242.326 174.08C240.646 174.08 239.176 174.65 238.156 176.12V174.41H233.596V188H238.156V181.28C238.156 179.54 238.306 177.83 240.256 177.83C242.176 177.83 242.236 179.54 242.236 181.28V188H246.766V181.28C246.766 179.54 246.916 177.83 248.866 177.83C250.786 177.83 250.846 179.54 250.846 181.28V188ZM263.42 169.16C263.42 167.66 262.22 166.46 260.72 166.46C259.22 166.46 258.02 167.66 258.02 169.16C258.02 170.66 259.22 171.86 260.72 171.86C262.22 171.86 263.42 170.66 263.42 169.16ZM263 188V174.41H258.44V188H263ZM275.568 174.41V175.91C274.728 174.65 273.288 173.96 271.608 173.96C267.918 173.96 265.068 177.11 265.068 181.25C265.068 185.3 267.888 188.45 271.548 188.45C273.138 188.45 274.518 187.91 275.568 186.68V195.14H280.128V174.41H275.568ZM275.718 181.19C275.718 182.9 274.398 184.31 272.778 184.31C271.128 184.31 269.808 182.93 269.808 181.19C269.808 179.48 271.128 178.1 272.778 178.1C274.398 178.1 275.718 179.48 275.718 181.19ZM296.756 183.02V174.41H292.196V182.12C292.196 183.8 291.416 184.64 289.976 184.64C288.446 184.64 287.756 183.86 287.756 182.12V174.41H283.196V183.02C283.196 186.65 285.476 188.57 289.976 188.57C294.476 188.57 296.756 186.65 296.756 183.02ZM313.067 182.06V181.55C313.067 176.87 310.427 173.9 306.107 173.9C301.607 173.9 298.847 176.75 298.847 181.28C298.847 185.66 301.757 188.51 306.197 188.51C309.617 188.51 312.257 186.86 312.887 183.83H308.477C307.907 184.76 307.337 185.09 306.257 185.09C304.397 185.09 303.467 184.1 303.467 182.06H313.067ZM308.807 179.27H303.587C303.827 177.89 304.757 177.08 306.137 177.08C307.517 177.08 308.507 177.92 308.807 179.27Z" fill="black"/>
<path d="M49.1961 226.01V224.162C48.0961 225.24 46.5121 225.856 44.9941 225.856C41.6501 225.856 38.9441 223.106 38.9441 219.718C38.9441 216.308 41.6501 213.492 44.9721 213.492C46.5121 213.492 48.1401 214.13 49.1961 215.164V213.316C47.8981 212.436 46.6001 212.084 45.0381 212.084C40.6821 212.084 37.3821 215.362 37.3821 219.696C37.3821 223.964 40.6821 227.286 44.9501 227.286C46.5121 227.286 47.8981 226.868 49.1961 226.01ZM59.9588 227V217.936H58.4848V219.344C57.5388 218.2 56.5048 217.694 55.1628 217.694C52.6768 217.694 50.8508 219.718 50.8508 222.446C50.8508 225.24 52.6768 227.286 55.1848 227.286C56.5268 227.286 57.5608 226.758 58.4848 225.614V227H59.9588ZM58.5948 222.446C58.5948 224.536 57.3188 225.988 55.4708 225.988C53.6668 225.988 52.3468 224.514 52.3468 222.468C52.3468 220.466 53.6668 218.992 55.4488 218.992C57.2968 218.992 58.5948 220.422 58.5948 222.446ZM67.8563 218.112C67.4823 217.848 66.9983 217.716 66.5143 217.716C65.5243 217.716 64.7323 218.266 64.1823 219.278V217.936H62.7083V227H64.1823V222.336C64.1823 220.752 64.4463 219.124 66.2283 219.124C66.6463 219.124 66.9103 219.234 67.1963 219.388L67.8563 218.112ZM70.692 227V210.236H69.218V227H70.692ZM81.7439 227V217.936H80.2699V219.344C79.3239 218.2 78.2899 217.694 76.9479 217.694C74.4619 217.694 72.6359 219.718 72.6359 222.446C72.6359 225.24 74.4619 227.286 76.9699 227.286C78.3119 227.286 79.3459 226.758 80.2699 225.614V227H81.7439ZM80.3799 222.446C80.3799 224.536 79.1039 225.988 77.2559 225.988C75.4519 225.988 74.1319 224.514 74.1319 222.468C74.1319 220.466 75.4519 218.992 77.2339 218.992C79.0819 218.992 80.3799 220.422 80.3799 222.446ZM94.1294 220.334V218.948H89.6634V214.438H88.2554V218.948H83.7674V220.334H88.2554V224.866H89.6634V220.334H94.1294ZM113.112 226.01V224.162C112.012 225.24 110.428 225.856 108.91 225.856C105.566 225.856 102.86 223.106 102.86 219.718C102.86 216.308 105.566 213.492 108.888 213.492C110.428 213.492 112.056 214.13 113.112 215.164V213.316C111.814 212.436 110.516 212.084 108.954 212.084C104.598 212.084 101.298 215.362 101.298 219.696C101.298 223.964 104.598 227.286 108.866 227.286C110.428 227.286 111.814 226.868 113.112 226.01ZM122.819 223.458V217.936H121.345V223.216C121.345 225.042 120.685 225.856 119.189 225.856C117.649 225.856 116.989 225.042 116.989 223.216V217.936H115.515V223.458C115.515 224.668 115.779 225.526 116.373 226.142C117.055 226.846 118.067 227.264 119.167 227.264C120.267 227.264 121.323 226.846 121.961 226.142C122.555 225.482 122.819 224.668 122.819 223.458ZM130.634 218.112C130.26 217.848 129.776 217.716 129.292 217.716C128.302 217.716 127.51 218.266 126.96 219.278V217.936H125.486V227H126.96V222.336C126.96 220.752 127.224 219.124 129.006 219.124C129.424 219.124 129.688 219.234 129.974 219.388L130.634 218.112ZM133.469 227V210.236H131.995V227H133.469ZM141.705 224.338C141.705 221.368 137.415 221.808 137.415 220.092C137.415 219.476 137.943 218.992 138.581 218.992C139.109 218.992 139.549 219.278 139.857 219.85L141.001 219.256C140.517 218.222 139.725 217.694 138.647 217.694C137.173 217.694 136.051 218.772 136.051 220.202C136.051 223.062 140.231 222.402 140.231 224.448C140.231 225.328 139.549 225.966 138.647 225.966C137.723 225.966 137.151 225.416 136.799 224.602L135.589 225.13C136.073 226.516 137.151 227.286 138.603 227.286C140.363 227.286 141.705 226.01 141.705 224.338ZM152.802 219.278V217.936H151.13V214.526H149.656V217.936H148.798V219.278H149.656V227H151.13V219.278H152.802ZM156.366 214.108C156.366 213.514 155.882 213.03 155.288 213.03C154.694 213.03 154.21 213.514 154.21 214.108C154.21 214.702 154.694 215.186 155.288 215.186C155.882 215.186 156.366 214.702 156.366 214.108ZM156.014 227V217.936H154.54V227H156.014ZM166.984 222.688C166.962 220.906 166.61 219.85 165.752 218.926C164.982 218.134 163.926 217.694 162.716 217.694C160.12 217.694 158.294 219.674 158.294 222.512C158.294 225.328 160.076 227.264 162.672 227.264C164.41 227.264 165.796 226.384 166.632 224.8L165.51 224.14C164.696 225.394 163.86 225.922 162.716 225.922C161.066 225.922 159.9 224.602 159.856 222.688H166.984ZM165.444 221.456H159.944C160.296 219.872 161.286 218.97 162.694 218.97C164.212 218.97 165.224 219.938 165.444 221.456ZM176.319 227V221.368C176.319 220.136 176.165 219.476 175.769 218.926C175.263 218.2 174.229 217.716 173.195 217.716C172.073 217.716 171.061 218.244 170.401 219.124V217.936H168.927V227H170.401V222.534C170.401 220.048 171.105 218.992 172.777 218.992C173.547 218.992 174.251 219.3 174.537 219.806C174.757 220.18 174.845 220.708 174.845 221.5V227H176.319ZM182.214 219.278V217.936H180.542V214.526H179.068V217.936H178.21V219.278H179.068V227H180.542V219.278H182.214ZM195.934 216.396L192.348 213.184L191.336 214.372L195.274 217.188L195.934 216.396ZM197.76 227V217.936H196.286V219.344C195.34 218.2 194.306 217.694 192.964 217.694C190.478 217.694 188.652 219.718 188.652 222.446C188.652 225.24 190.478 227.286 192.986 227.286C194.328 227.286 195.362 226.758 196.286 225.614V227H197.76ZM196.396 222.446C196.396 224.536 195.12 225.988 193.272 225.988C191.468 225.988 190.148 224.514 190.148 222.468C190.148 220.466 191.468 218.992 193.25 218.992C195.098 218.992 196.396 220.422 196.396 222.446ZM208.53 214.108C208.53 213.514 208.046 213.03 207.452 213.03C206.858 213.03 206.374 213.514 206.374 214.108C206.374 214.702 206.858 215.186 207.452 215.186C208.046 215.186 208.53 214.702 208.53 214.108ZM208.178 232.236V217.936H206.704V232.236H208.178ZM220.094 222.49C220.094 219.784 217.982 217.672 215.276 217.672C212.592 217.672 210.458 219.784 210.458 222.49C210.458 225.174 212.592 227.286 215.276 227.286C217.982 227.286 220.094 225.174 220.094 222.49ZM218.554 222.402C218.554 224.404 217.168 225.9 215.276 225.9C213.384 225.9 211.998 224.47 211.998 222.49C211.998 220.51 213.384 219.08 215.276 219.08C217.168 219.08 218.554 220.488 218.554 222.402ZM229.252 223.458V217.936H227.778V223.216C227.778 225.042 227.118 225.856 225.622 225.856C224.082 225.856 223.422 225.042 223.422 223.216V217.936H221.948V223.458C221.948 224.668 222.212 225.526 222.806 226.142C223.488 226.846 224.5 227.264 225.6 227.264C226.7 227.264 227.756 226.846 228.394 226.142C228.988 225.482 229.252 224.668 229.252 223.458ZM237.067 218.112C236.693 217.848 236.209 217.716 235.725 217.716C234.735 217.716 233.943 218.266 233.393 219.278V217.936H231.919V227H233.393V222.336C233.393 220.752 233.657 219.124 235.439 219.124C235.857 219.124 236.121 219.234 236.407 219.388L237.067 218.112ZM251.708 217.936H250.058L247.33 224.074L244.58 217.936H242.842L247.286 227.418L251.708 217.936ZM261.838 222.49C261.838 219.784 259.726 217.672 257.02 217.672C254.336 217.672 252.202 219.784 252.202 222.49C252.202 225.174 254.336 227.286 257.02 227.286C259.726 227.286 261.838 225.174 261.838 222.49ZM260.298 222.402C260.298 224.404 258.912 225.9 257.02 225.9C255.128 225.9 253.742 224.47 253.742 222.49C253.742 220.51 255.128 219.08 257.02 219.08C258.912 219.08 260.298 220.488 260.298 222.402ZM266.927 219.278V217.936H265.255V214.526H263.781V217.936H262.923V219.278H263.781V227H265.255V219.278H266.927ZM273.483 218.112C273.109 217.848 272.625 217.716 272.141 217.716C271.151 217.716 270.359 218.266 269.809 219.278V217.936H268.335V227H269.809V222.336C269.809 220.752 270.073 219.124 271.855 219.124C272.273 219.124 272.537 219.234 272.823 219.388L273.483 218.112ZM282.699 222.688C282.677 220.906 282.325 219.85 281.467 218.926C280.697 218.134 279.641 217.694 278.431 217.694C275.835 217.694 274.009 219.674 274.009 222.512C274.009 225.328 275.791 227.264 278.387 227.264C280.125 227.264 281.511 226.384 282.347 224.8L281.225 224.14C280.411 225.394 279.575 225.922 278.431 225.922C276.781 225.922 275.615 224.602 275.571 222.688H282.699ZM281.159 221.456H275.659C276.011 219.872 277.001 218.97 278.409 218.97C279.927 218.97 280.939 219.938 281.159 221.456ZM45.4676 253V243.936H43.9936V245.344C43.0476 244.2 42.0136 243.694 40.6716 243.694C38.1856 243.694 36.3596 245.718 36.3596 248.446C36.3596 251.24 38.1856 253.286 40.6936 253.286C42.0356 253.286 43.0696 252.758 43.9936 251.614V253H45.4676ZM44.1036 248.446C44.1036 250.536 42.8276 251.988 40.9796 251.988C39.1756 251.988 37.8556 250.514 37.8556 248.468C37.8556 246.466 39.1756 244.992 40.9576 244.992C42.8056 244.992 44.1036 246.422 44.1036 248.446ZM56.4891 253.22V243.936H55.0151V245.322C54.3331 244.574 54.0031 244.31 53.2991 244.024C52.8151 243.848 52.2871 243.738 51.7591 243.738C49.2291 243.738 47.4031 245.762 47.4031 248.556C47.4031 251.284 49.2071 253.286 51.6711 253.286C52.7491 253.286 53.8051 252.868 54.5751 252.098C54.7071 251.966 54.8611 251.812 55.0151 251.636V253.308C55.0151 255.64 54.0031 256.894 52.0451 256.894C50.9891 256.894 49.9991 256.41 49.5151 255.618C49.2291 255.178 49.1631 254.892 49.0971 254.144H47.6231C47.7331 256.608 49.4711 258.214 52.0231 258.214C55.0811 258.214 56.4891 256.344 56.4891 253.22ZM55.1031 248.468C55.1031 250.558 53.8051 252.01 51.9791 252.01C50.1751 252.01 48.8771 250.58 48.8771 248.578C48.8771 246.466 50.1311 245.014 51.9571 245.014C53.8051 245.014 55.1031 246.444 55.1031 248.468ZM67.1355 248.688C67.1135 246.906 66.7615 245.85 65.9035 244.926C65.1335 244.134 64.0775 243.694 62.8675 243.694C60.2715 243.694 58.4455 245.674 58.4455 248.512C58.4455 251.328 60.2275 253.264 62.8235 253.264C64.5615 253.264 65.9475 252.384 66.7835 250.8L65.6615 250.14C64.8475 251.394 64.0115 251.922 62.8675 251.922C61.2175 251.922 60.0515 250.602 60.0075 248.688H67.1355ZM65.5955 247.456H60.0955C60.4475 245.872 61.4375 244.97 62.8455 244.97C64.3635 244.97 65.3755 245.938 65.5955 247.456ZM76.4704 253V247.368C76.4704 246.136 76.3164 245.476 75.9204 244.926C75.4144 244.2 74.3804 243.716 73.3464 243.716C72.2244 243.716 71.2124 244.244 70.5524 245.124V243.936H69.0784V253H70.5524V248.534C70.5524 246.048 71.2564 244.992 72.9284 244.992C73.6984 244.992 74.4024 245.3 74.6884 245.806C74.9084 246.18 74.9964 246.708 74.9964 247.5V253H76.4704ZM87.491 253V236.236H86.017V245.344C85.071 244.2 84.037 243.694 82.695 243.694C80.209 243.694 78.383 245.718 78.383 248.446C78.383 251.24 80.209 253.286 82.717 253.286C84.059 253.286 85.093 252.758 86.017 251.614V253H87.491ZM86.127 248.446C86.127 250.536 84.851 251.988 83.003 251.988C81.199 251.988 79.879 250.514 79.879 248.468C79.879 246.466 81.199 244.992 82.981 244.992C84.829 244.992 86.127 246.422 86.127 248.446ZM98.5125 253V243.936H97.0385V245.344C96.0925 244.2 95.0585 243.694 93.7165 243.694C91.2305 243.694 89.4045 245.718 89.4045 248.446C89.4045 251.24 91.2305 253.286 93.7385 253.286C95.0805 253.286 96.1145 252.758 97.0385 251.614V253H98.5125ZM97.1485 248.446C97.1485 250.536 95.8725 251.988 94.0245 251.988C92.2205 251.988 90.9005 250.514 90.9005 248.468C90.9005 246.466 92.2205 244.992 94.0025 244.992C95.8505 244.992 97.1485 246.422 97.1485 248.446ZM116.235 248.49C116.235 245.674 114.409 243.65 111.879 243.65C110.537 243.65 109.525 244.156 108.601 245.3V243.936H107.127V258.236H108.601V251.636C109.591 252.824 110.581 253.242 111.923 253.242C114.409 253.242 116.235 251.24 116.235 248.49ZM114.739 248.468C114.739 250.47 113.419 251.944 111.637 251.944C109.789 251.944 108.491 250.514 108.491 248.49C108.491 246.4 109.789 244.948 111.637 244.948C113.419 244.948 114.739 246.422 114.739 248.468ZM126.949 248.49C126.949 245.784 124.837 243.672 122.131 243.672C119.447 243.672 117.313 245.784 117.313 248.49C117.313 251.174 119.447 253.286 122.131 253.286C124.837 253.286 126.949 251.174 126.949 248.49ZM125.409 248.402C125.409 250.404 124.023 251.9 122.131 251.9C120.239 251.9 118.853 250.47 118.853 248.49C118.853 246.51 120.239 245.08 122.131 245.08C124.023 245.08 125.409 246.488 125.409 248.402ZM136.107 249.458V243.936H134.633V249.216C134.633 251.042 133.973 251.856 132.477 251.856C130.937 251.856 130.277 251.042 130.277 249.216V243.936H128.803V249.458C128.803 250.668 129.067 251.526 129.661 252.142C130.343 252.846 131.355 253.264 132.455 253.264C133.555 253.264 134.611 252.846 135.249 252.142C135.843 251.482 136.107 250.668 136.107 249.458ZM143.922 244.112C143.548 243.848 143.064 243.716 142.58 243.716C141.59 243.716 140.798 244.266 140.248 245.278V243.936H138.774V253H140.248V248.336C140.248 246.752 140.512 245.124 142.294 245.124C142.712 245.124 142.976 245.234 143.262 245.388L143.922 244.112ZM154.295 245.278V243.936H152.623V240.526H151.149V243.936H150.291V245.278H151.149V253H152.623V245.278H154.295ZM164.503 248.49C164.503 245.784 162.391 243.672 159.685 243.672C157.001 243.672 154.867 245.784 154.867 248.49C154.867 251.174 157.001 253.286 159.685 253.286C162.391 253.286 164.503 251.174 164.503 248.49ZM162.963 248.402C162.963 250.404 161.577 251.9 159.685 251.9C157.793 251.9 156.407 250.47 156.407 248.49C156.407 246.51 157.793 245.08 159.685 245.08C161.577 245.08 162.963 246.488 162.963 248.402ZM173.662 249.458V243.936H172.188V249.216C172.188 251.042 171.528 251.856 170.032 251.856C168.492 251.856 167.832 251.042 167.832 249.216V243.936H166.358V249.458C166.358 250.668 166.622 251.526 167.216 252.142C167.898 252.846 168.91 253.264 170.01 253.264C171.11 253.264 172.166 252.846 172.804 252.142C173.398 251.482 173.662 250.668 173.662 249.458ZM181.784 250.338C181.784 247.368 177.494 247.808 177.494 246.092C177.494 245.476 178.022 244.992 178.66 244.992C179.188 244.992 179.628 245.278 179.936 245.85L181.08 245.256C180.596 244.222 179.804 243.694 178.726 243.694C177.252 243.694 176.13 244.772 176.13 246.202C176.13 249.062 180.31 248.402 180.31 250.448C180.31 251.328 179.628 251.966 178.726 251.966C177.802 251.966 177.23 251.416 176.878 250.602L175.668 251.13C176.152 252.516 177.23 253.286 178.682 253.286C180.442 253.286 181.784 252.01 181.784 250.338ZM197.149 243.936H195.499L192.771 250.074L190.021 243.936H188.283L192.727 253.418L197.149 243.936ZM207.279 248.49C207.279 245.784 205.167 243.672 202.461 243.672C199.777 243.672 197.643 245.784 197.643 248.49C197.643 251.174 199.777 253.286 202.461 253.286C205.167 253.286 207.279 251.174 207.279 248.49ZM205.739 248.402C205.739 250.404 204.353 251.9 202.461 251.9C200.569 251.9 199.183 250.47 199.183 248.49C199.183 246.51 200.569 245.08 202.461 245.08C204.353 245.08 205.739 246.488 205.739 248.402ZM214.677 250.338C214.677 247.368 210.387 247.808 210.387 246.092C210.387 245.476 210.915 244.992 211.553 244.992C212.081 244.992 212.521 245.278 212.829 245.85L213.973 245.256C213.489 244.222 212.697 243.694 211.619 243.694C210.145 243.694 209.023 244.772 209.023 246.202C209.023 249.062 213.203 248.402 213.203 250.448C213.203 251.328 212.521 251.966 211.619 251.966C210.695 251.966 210.123 251.416 209.771 250.602L208.561 251.13C209.045 252.516 210.123 253.286 211.575 253.286C213.335 253.286 214.677 252.01 214.677 250.338ZM227.775 244.112C227.401 243.848 226.917 243.716 226.433 243.716C225.443 243.716 224.651 244.266 224.101 245.278V243.936H222.627V253H224.101V248.336C224.101 246.752 224.365 245.124 226.147 245.124C226.565 245.124 226.829 245.234 227.115 245.388L227.775 244.112ZM236.991 248.688C236.969 246.906 236.617 245.85 235.759 244.926C234.989 244.134 233.933 243.694 232.723 243.694C230.127 243.694 228.301 245.674 228.301 248.512C228.301 251.328 230.083 253.264 232.679 253.264C234.417 253.264 235.803 252.384 236.639 250.8L235.517 250.14C234.703 251.394 233.867 251.922 232.723 251.922C231.073 251.922 229.907 250.602 229.863 248.688H236.991ZM235.451 247.456H229.951C230.303 245.872 231.293 244.97 232.701 244.97C234.219 244.97 235.231 245.938 235.451 247.456ZM246.326 253V247.368C246.326 246.136 246.172 245.476 245.776 244.926C245.27 244.2 244.236 243.716 243.202 243.716C242.08 243.716 241.068 244.244 240.408 245.124V243.936H238.934V253H240.408V248.534C240.408 246.048 241.112 244.992 242.784 244.992C243.554 244.992 244.258 245.3 244.544 245.806C244.764 246.18 244.852 246.708 244.852 247.5V253H246.326ZM257.346 253V236.236H255.872V245.344C254.926 244.2 253.892 243.694 252.55 243.694C250.064 243.694 248.238 245.718 248.238 248.446C248.238 251.24 250.064 253.286 252.572 253.286C253.914 253.286 254.948 252.758 255.872 251.614V253H257.346ZM255.982 248.446C255.982 250.536 254.706 251.988 252.858 251.988C251.054 251.988 249.734 250.514 249.734 248.468C249.734 246.466 251.054 244.992 252.836 244.992C254.684 244.992 255.982 246.422 255.982 248.446ZM267.95 248.688C267.928 246.906 267.576 245.85 266.718 244.926C265.948 244.134 264.892 243.694 263.682 243.694C261.086 243.694 259.26 245.674 259.26 248.512C259.26 251.328 261.042 253.264 263.638 253.264C265.376 253.264 266.762 252.384 267.598 250.8L266.476 250.14C265.662 251.394 264.826 251.922 263.682 251.922C262.032 251.922 260.866 250.602 260.822 248.688H267.95ZM266.41 247.456H260.91C261.262 245.872 262.252 244.97 263.66 244.97C265.178 244.97 266.19 245.938 266.41 247.456ZM278.077 243.936H269.739V245.278H275.195L268.661 253H277.901V251.658H271.543L278.077 243.936ZM283.63 247.566V246.18H278.768V247.566H283.63ZM76.0949 269.936H74.4449L71.7169 276.074L68.9669 269.936H67.2289L71.6729 279.418L76.0949 269.936ZM86.2251 274.49C86.2251 271.784 84.1131 269.672 81.4071 269.672C78.7231 269.672 76.5891 271.784 76.5891 274.49C76.5891 277.174 78.7231 279.286 81.4071 279.286C84.1131 279.286 86.2251 277.174 86.2251 274.49ZM84.6851 274.402C84.6851 276.404 83.2991 277.9 81.4071 277.9C79.5151 277.9 78.1291 276.47 78.1291 274.49C78.1291 272.51 79.5151 271.08 81.4071 271.08C83.2991 271.08 84.6851 272.488 84.6851 274.402ZM95.3833 275.458V269.936H93.9093V275.216C93.9093 277.042 93.2492 277.856 91.7533 277.856C90.2133 277.856 89.5533 277.042 89.5533 275.216V269.936H88.0793V275.458C88.0793 276.668 88.3433 277.526 88.9373 278.142C89.6193 278.846 90.6313 279.264 91.7313 279.264C92.8313 279.264 93.8873 278.846 94.5253 278.142C95.1193 277.482 95.3833 276.668 95.3833 275.458ZM103.506 276.338C103.506 273.368 99.2161 273.808 99.2161 272.092C99.2161 271.476 99.7441 270.992 100.382 270.992C100.91 270.992 101.35 271.278 101.658 271.85L102.802 271.256C102.318 270.222 101.526 269.694 100.448 269.694C98.9741 269.694 97.8521 270.772 97.8521 272.202C97.8521 275.062 102.032 274.402 102.032 276.448C102.032 277.328 101.35 277.966 100.448 277.966C99.5241 277.966 98.9521 277.416 98.6001 276.602L97.3901 277.13C97.8741 278.516 98.9521 279.286 100.404 279.286C102.164 279.286 103.506 278.01 103.506 276.338ZM118.166 278.472V276.734C117.198 277.592 116.472 277.878 115.438 277.878C113.48 277.878 112.16 276.514 112.16 274.512C112.16 272.466 113.502 271.058 115.416 271.058C116.45 271.058 117.198 271.366 118.122 272.202V270.464C117.286 269.914 116.494 269.672 115.46 269.672C112.754 269.672 110.62 271.784 110.62 274.49C110.62 277.196 112.732 279.264 115.46 279.264C116.472 279.264 117.22 279.044 118.166 278.472ZM128.666 279V269.936H127.192V271.344C126.246 270.2 125.212 269.694 123.87 269.694C121.384 269.694 119.558 271.718 119.558 274.446C119.558 277.24 121.384 279.286 123.892 279.286C125.234 279.286 126.268 278.758 127.192 277.614V279H128.666ZM127.302 274.446C127.302 276.536 126.026 277.988 124.178 277.988C122.374 277.988 121.054 276.514 121.054 274.468C121.054 272.466 122.374 270.992 124.156 270.992C126.004 270.992 127.302 272.422 127.302 274.446ZM140.523 274.49C140.523 271.674 138.697 269.65 136.167 269.65C134.825 269.65 133.813 270.156 132.889 271.3V269.936H131.415V284.236H132.889V277.636C133.879 278.824 134.869 279.242 136.211 279.242C138.697 279.242 140.523 277.24 140.523 274.49ZM139.027 274.468C139.027 276.47 137.707 277.944 135.925 277.944C134.077 277.944 132.779 276.514 132.779 274.49C132.779 272.4 134.077 270.948 135.925 270.948C137.707 270.948 139.027 272.422 139.027 274.468ZM144.593 266.108C144.593 265.514 144.109 265.03 143.515 265.03C142.921 265.03 142.437 265.514 142.437 266.108C142.437 266.702 142.921 267.186 143.515 267.186C144.109 267.186 144.593 266.702 144.593 266.108ZM144.241 279V269.936H142.767V279H144.241ZM148.831 279V262.236H147.357V279H148.831ZM153.085 279V262.236H151.611V279H153.085ZM164.137 279V269.936H162.663V271.344C161.717 270.2 160.683 269.694 159.341 269.694C156.855 269.694 155.029 271.718 155.029 274.446C155.029 277.24 156.855 279.286 159.363 279.286C160.705 279.286 161.739 278.758 162.663 277.614V279H164.137ZM162.773 274.446C162.773 276.536 161.497 277.988 159.649 277.988C157.845 277.988 156.525 276.514 156.525 274.468C156.525 272.466 157.845 270.992 159.627 270.992C161.475 270.992 162.773 272.422 162.773 274.446ZM169.042 266.108C169.042 265.514 168.558 265.03 167.964 265.03C167.37 265.03 166.886 265.514 166.886 266.108C166.886 266.702 167.37 267.186 167.964 267.186C168.558 267.186 169.042 266.702 169.042 266.108ZM168.69 279V269.936H167.216V279H168.69ZM176.954 270.112C176.58 269.848 176.096 269.716 175.612 269.716C174.622 269.716 173.83 270.266 173.28 271.278V269.936H171.806V279H173.28V274.336C173.28 272.752 173.544 271.124 175.326 271.124C175.744 271.124 176.008 271.234 176.294 271.388L176.954 270.112ZM186.17 274.688C186.148 272.906 185.796 271.85 184.938 270.926C184.168 270.134 183.112 269.694 181.902 269.694C179.306 269.694 177.48 271.674 177.48 274.512C177.48 277.328 179.262 279.264 181.858 279.264C183.596 279.264 184.982 278.384 185.818 276.8L184.696 276.14C183.882 277.394 183.046 277.922 181.902 277.922C180.252 277.922 179.086 276.602 179.042 274.688H186.17ZM184.63 273.456H179.13C179.482 271.872 180.472 270.97 181.88 270.97C183.398 270.97 184.41 271.938 184.63 273.456ZM193.569 276.338C193.569 273.368 189.279 273.808 189.279 272.092C189.279 271.476 189.807 270.992 190.445 270.992C190.973 270.992 191.413 271.278 191.721 271.85L192.865 271.256C192.381 270.222 191.589 269.694 190.511 269.694C189.037 269.694 187.915 270.772 187.915 272.202C187.915 275.062 192.095 274.402 192.095 276.448C192.095 277.328 191.413 277.966 190.511 277.966C189.587 277.966 189.015 277.416 188.663 276.602L187.453 277.13C187.937 278.516 189.015 279.286 190.467 279.286C192.227 279.286 193.569 278.01 193.569 276.338ZM198.932 277.482L197.392 276.932L195.61 282.036L196.512 282.41L198.932 277.482ZM212.819 276.338C212.819 273.368 208.529 273.808 208.529 272.092C208.529 271.476 209.057 270.992 209.695 270.992C210.223 270.992 210.663 271.278 210.971 271.85L212.115 271.256C211.631 270.222 210.839 269.694 209.761 269.694C208.287 269.694 207.165 270.772 207.165 272.202C207.165 275.062 211.345 274.402 211.345 276.448C211.345 277.328 210.663 277.966 209.761 277.966C208.837 277.966 208.265 277.416 207.913 276.602L206.703 277.13C207.187 278.516 208.265 279.286 209.717 279.286C211.477 279.286 212.819 278.01 212.819 276.338ZM223.704 274.49C223.704 271.784 221.592 269.672 218.886 269.672C216.202 269.672 214.068 271.784 214.068 274.49C214.068 277.174 216.202 279.286 218.886 279.286C221.592 279.286 223.704 277.174 223.704 274.49ZM222.164 274.402C222.164 276.404 220.778 277.9 218.886 277.9C216.994 277.9 215.608 276.47 215.608 274.49C215.608 272.51 216.994 271.08 218.886 271.08C220.778 271.08 222.164 272.488 222.164 274.402ZM227.802 266.108C227.802 265.514 227.318 265.03 226.724 265.03C226.13 265.03 225.646 265.514 225.646 266.108C225.646 266.702 226.13 267.186 226.724 267.186C227.318 267.186 227.802 266.702 227.802 266.108ZM227.45 279V269.936H225.976V279H227.45ZM237.958 279V273.368C237.958 272.136 237.804 271.476 237.408 270.926C236.902 270.2 235.868 269.716 234.834 269.716C233.712 269.716 232.7 270.244 232.04 271.124V269.936H230.566V279H232.04V274.534C232.04 272.048 232.744 270.992 234.416 270.992C235.186 270.992 235.89 271.3 236.176 271.806C236.396 272.18 236.484 272.708 236.484 273.5V279H237.958ZM246.162 276.338C246.162 273.368 241.872 273.808 241.872 272.092C241.872 271.476 242.4 270.992 243.038 270.992C243.566 270.992 244.006 271.278 244.314 271.85L245.458 271.256C244.974 270.222 244.182 269.694 243.104 269.694C241.63 269.694 240.508 270.772 240.508 272.202C240.508 275.062 244.688 274.402 244.688 276.448C244.688 277.328 244.006 277.966 243.104 277.966C242.18 277.966 241.608 277.416 241.256 276.602L240.046 277.13C240.53 278.516 241.608 279.286 243.06 279.286C244.82 279.286 246.162 278.01 246.162 276.338ZM251.525 277.482L249.985 276.932L248.203 282.036L249.105 282.41L251.525 277.482ZM29.5281 296.112C29.1541 295.848 28.6701 295.716 28.1861 295.716C27.1961 295.716 26.4041 296.266 25.8541 297.278V295.936H24.3801V305H25.8541V300.336C25.8541 298.752 26.1181 297.124 27.9001 297.124C28.3181 297.124 28.5821 297.234 28.8681 297.388L29.5281 296.112ZM38.7439 300.688C38.7219 298.906 38.3699 297.85 37.5119 296.926C36.7419 296.134 35.6859 295.694 34.4759 295.694C31.8799 295.694 30.0539 297.674 30.0539 300.512C30.0539 303.328 31.8359 305.264 34.4319 305.264C36.1699 305.264 37.5559 304.384 38.3919 302.8L37.2699 302.14C36.4559 303.394 35.6199 303.922 34.4759 303.922C32.8259 303.922 31.6599 302.602 31.6159 300.688H38.7439ZM37.2039 299.456H31.7039C32.0559 297.872 33.0459 296.97 34.4539 296.97C35.9719 296.97 36.9839 297.938 37.2039 299.456ZM48.0788 305V299.368C48.0788 298.136 47.9248 297.476 47.5288 296.926C47.0228 296.2 45.9888 295.716 44.9548 295.716C43.8328 295.716 42.8208 296.244 42.1608 297.124V295.936H40.6868V305H42.1608V300.534C42.1608 298.048 42.8648 296.992 44.5368 296.992C45.3068 296.992 46.0108 297.3 46.2968 297.806C46.5168 298.18 46.6048 298.708 46.6048 299.5V305H48.0788ZM59.6274 300.49C59.6274 297.784 57.5154 295.672 54.8094 295.672C52.1254 295.672 49.9914 297.784 49.9914 300.49C49.9914 303.174 52.1254 305.286 54.8094 305.286C57.5154 305.286 59.6274 303.174 59.6274 300.49ZM58.0874 300.402C58.0874 302.404 56.7014 303.9 54.8094 303.9C52.9174 303.9 51.5314 302.47 51.5314 300.49C51.5314 298.51 52.9174 297.08 54.8094 297.08C56.7014 297.08 58.0874 298.488 58.0874 300.402ZM68.7856 301.458V295.936H67.3116V301.216C67.3116 303.042 66.6516 303.856 65.1556 303.856C63.6156 303.856 62.9556 303.042 62.9556 301.216V295.936H61.4816V301.458C61.4816 302.668 61.7456 303.526 62.3396 304.142C63.0216 304.846 64.0336 305.264 65.1336 305.264C66.2336 305.264 67.2896 304.846 67.9276 304.142C68.5216 303.482 68.7856 302.668 68.7856 301.458ZM78.8664 295.936H77.2164L74.4884 302.074L71.7384 295.936H70.0004L74.4444 305.418L78.8664 295.936ZM88.0505 300.688C88.0285 298.906 87.6765 297.85 86.8185 296.926C86.0485 296.134 84.9925 295.694 83.7825 295.694C81.1865 295.694 79.3605 297.674 79.3605 300.512C79.3605 303.328 81.1425 305.264 83.7385 305.264C85.4765 305.264 86.8625 304.384 87.6985 302.8L86.5765 302.14C85.7625 303.394 84.9265 303.922 83.7825 303.922C82.1325 303.922 80.9665 302.602 80.9225 300.688H88.0505ZM86.5105 299.456H81.0105C81.3625 297.872 82.3525 296.97 83.7605 296.97C85.2785 296.97 86.2905 297.938 86.5105 299.456ZM91.4674 305V288.236H89.9934V305H91.4674ZM95.7213 305V288.236H94.2473V305H95.7213ZM106.355 300.688C106.333 298.906 105.981 297.85 105.123 296.926C104.353 296.134 103.297 295.694 102.087 295.694C99.4912 295.694 97.6652 297.674 97.6652 300.512C97.6652 303.328 99.4472 305.264 102.043 305.264C103.781 305.264 105.167 304.384 106.003 302.8L104.881 302.14C104.067 303.394 103.231 303.922 102.087 303.922C100.437 303.922 99.2712 302.602 99.2272 300.688H106.355ZM104.815 299.456H99.3152C99.6672 297.872 100.657 296.97 102.065 296.97C103.583 296.97 104.595 297.938 104.815 299.456ZM120.486 305V299.192C120.486 298.136 120.354 297.542 120.002 296.97C119.496 296.178 118.594 295.716 117.56 295.716C116.416 295.716 115.602 296.156 114.744 297.278C114.15 296.244 113.336 295.716 112.258 295.716C111.29 295.716 110.564 296.09 109.772 296.97V295.936H108.298V305H109.772V300.094C109.772 299.104 109.882 298.51 110.146 298.026C110.476 297.388 111.158 296.992 111.862 296.992C113.094 296.992 113.688 297.872 113.688 299.676V305H115.162V300.028C115.162 297.982 115.844 296.992 117.252 296.992C118.418 296.992 119.012 297.784 119.012 299.39V305H120.486ZM131.084 300.688C131.062 298.906 130.71 297.85 129.852 296.926C129.082 296.134 128.026 295.694 126.816 295.694C124.22 295.694 122.394 297.674 122.394 300.512C122.394 303.328 124.176 305.264 126.772 305.264C128.51 305.264 129.896 304.384 130.732 302.8L129.61 302.14C128.796 303.394 127.96 303.922 126.816 303.922C125.166 303.922 124 302.602 123.956 300.688H131.084ZM129.544 299.456H124.044C124.396 297.872 125.386 296.97 126.794 296.97C128.312 296.97 129.324 297.938 129.544 299.456ZM140.419 305V299.368C140.419 298.136 140.265 297.476 139.869 296.926C139.363 296.2 138.329 295.716 137.295 295.716C136.173 295.716 135.161 296.244 134.501 297.124V295.936H133.027V305H134.501V300.534C134.501 298.048 135.205 296.992 136.877 296.992C137.647 296.992 138.351 297.3 138.637 297.806C138.857 298.18 138.945 298.708 138.945 299.5V305H140.419ZM146.313 297.278V295.936H144.641V292.526H143.167V295.936H142.309V297.278H143.167V305H144.641V297.278H146.313ZM153.178 302.338C153.178 299.368 148.888 299.808 148.888 298.092C148.888 297.476 149.416 296.992 150.054 296.992C150.582 296.992 151.022 297.278 151.33 297.85L152.474 297.256C151.99 296.222 151.198 295.694 150.12 295.694C148.646 295.694 147.524 296.772 147.524 298.202C147.524 301.062 151.704 300.402 151.704 302.448C151.704 303.328 151.022 303.966 150.12 303.966C149.196 303.966 148.624 303.416 148.272 302.602L147.062 303.13C147.546 304.516 148.624 305.286 150.076 305.286C151.836 305.286 153.178 304.01 153.178 302.338ZM169.4 305V288.236H167.926V297.344C166.98 296.2 165.946 295.694 164.604 295.694C162.118 295.694 160.292 297.718 160.292 300.446C160.292 303.24 162.118 305.286 164.626 305.286C165.968 305.286 167.002 304.758 167.926 303.614V305H169.4ZM168.036 300.446C168.036 302.536 166.76 303.988 164.912 303.988C163.108 303.988 161.788 302.514 161.788 300.468C161.788 298.466 163.108 296.992 164.89 296.992C166.738 296.992 168.036 298.422 168.036 300.446ZM180.004 300.688C179.982 298.906 179.63 297.85 178.772 296.926C178.002 296.134 176.946 295.694 175.736 295.694C173.14 295.694 171.314 297.674 171.314 300.512C171.314 303.328 173.096 305.264 175.692 305.264C177.43 305.264 178.816 304.384 179.652 302.8L178.53 302.14C177.716 303.394 176.88 303.922 175.736 303.922C174.086 303.922 172.92 302.602 172.876 300.688H180.004ZM178.464 299.456H172.964C173.316 297.872 174.306 296.97 175.714 296.97C177.232 296.97 178.244 297.938 178.464 299.456ZM194.522 304.472V302.734C193.554 303.592 192.828 303.878 191.794 303.878C189.836 303.878 188.516 302.514 188.516 300.512C188.516 298.466 189.858 297.058 191.772 297.058C192.806 297.058 193.554 297.366 194.478 298.202V296.464C193.642 295.914 192.85 295.672 191.816 295.672C189.11 295.672 186.976 297.784 186.976 300.49C186.976 303.196 189.088 305.264 191.816 305.264C192.828 305.264 193.576 305.044 194.522 304.472ZM205.549 300.49C205.549 297.784 203.437 295.672 200.731 295.672C198.047 295.672 195.913 297.784 195.913 300.49C195.913 303.174 198.047 305.286 200.731 305.286C203.437 305.286 205.549 303.174 205.549 300.49ZM204.009 300.402C204.009 302.404 202.623 303.9 200.731 303.9C198.839 303.9 197.453 302.47 197.453 300.49C197.453 298.51 198.839 297.08 200.731 297.08C202.623 297.08 204.009 298.488 204.009 300.402ZM214.707 301.458V295.936H213.233V301.216C213.233 303.042 212.573 303.856 211.077 303.856C209.537 303.856 208.877 303.042 208.877 301.216V295.936H207.403V301.458C207.403 302.668 207.667 303.526 208.261 304.142C208.943 304.846 209.955 305.264 211.055 305.264C212.155 305.264 213.211 304.846 213.849 304.142C214.443 303.482 214.707 302.668 214.707 301.458ZM226.482 300.49C226.482 297.674 224.656 295.65 222.126 295.65C220.784 295.65 219.772 296.156 218.848 297.3V295.936H217.374V310.236H218.848V303.636C219.838 304.824 220.828 305.242 222.17 305.242C224.656 305.242 226.482 303.24 226.482 300.49ZM224.986 300.468C224.986 302.47 223.666 303.944 221.884 303.944C220.036 303.944 218.738 302.514 218.738 300.49C218.738 298.4 220.036 296.948 221.884 296.948C223.666 296.948 224.986 298.422 224.986 300.468ZM236.25 300.688C236.228 298.906 235.876 297.85 235.018 296.926C234.248 296.134 233.192 295.694 231.982 295.694C229.386 295.694 227.56 297.674 227.56 300.512C227.56 303.328 229.342 305.264 231.938 305.264C233.676 305.264 235.062 304.384 235.898 302.8L234.776 302.14C233.962 303.394 233.126 303.922 231.982 303.922C230.332 303.922 229.166 302.602 229.122 300.688H236.25ZM234.71 299.456H229.21C229.562 297.872 230.552 296.97 231.96 296.97C233.478 296.97 234.49 297.938 234.71 299.456ZM243.649 302.338C243.649 299.368 239.359 299.808 239.359 298.092C239.359 297.476 239.887 296.992 240.525 296.992C241.053 296.992 241.493 297.278 241.801 297.85L242.945 297.256C242.461 296.222 241.669 295.694 240.591 295.694C239.117 295.694 237.995 296.772 237.995 298.202C237.995 301.062 242.175 300.402 242.175 302.448C242.175 303.328 241.493 303.966 240.591 303.966C239.667 303.966 239.095 303.416 238.743 302.602L237.533 303.13C238.017 304.516 239.095 305.286 240.547 305.286C242.307 305.286 243.649 304.01 243.649 302.338ZM249.012 303.482L247.472 302.932L245.69 308.036L246.592 308.41L249.012 303.482ZM265.297 300.688C265.275 298.906 264.923 297.85 264.065 296.926C263.295 296.134 262.239 295.694 261.029 295.694C258.433 295.694 256.607 297.674 256.607 300.512C256.607 303.328 258.389 305.264 260.985 305.264C262.723 305.264 264.109 304.384 264.945 302.8L263.823 302.14C263.009 303.394 262.173 303.922 261.029 303.922C259.379 303.922 258.213 302.602 258.169 300.688H265.297ZM263.757 299.456H258.257C258.609 297.872 259.599 296.97 261.007 296.97C262.525 296.97 263.537 297.938 263.757 299.456ZM270.386 297.278V295.936H268.714V292.526H267.24V295.936H266.382V297.278H267.24V305H268.714V297.278H270.386ZM278.504 304.472V302.734C277.536 303.592 276.81 303.878 275.776 303.878C273.818 303.878 272.498 302.514 272.498 300.512C272.498 298.466 273.84 297.058 275.754 297.058C276.788 297.058 277.536 297.366 278.46 298.202V296.464C277.624 295.914 276.832 295.672 275.798 295.672C273.092 295.672 270.958 297.784 270.958 300.49C270.958 303.196 273.07 305.264 275.798 305.264C276.81 305.264 277.558 305.044 278.504 304.472ZM283.328 304.164C283.328 303.614 282.866 303.152 282.294 303.152C281.722 303.152 281.26 303.614 281.26 304.164C281.26 304.736 281.722 305.198 282.294 305.198C282.866 305.198 283.328 304.736 283.328 304.164ZM289.214 304.164C289.214 303.614 288.752 303.152 288.18 303.152C287.608 303.152 287.146 303.614 287.146 304.164C287.146 304.736 287.608 305.198 288.18 305.198C288.752 305.198 289.214 304.736 289.214 304.164ZM295.101 304.164C295.101 303.614 294.639 303.152 294.067 303.152C293.495 303.152 293.033 303.614 293.033 304.164C293.033 304.736 293.495 305.198 294.067 305.198C294.639 305.198 295.101 304.736 295.101 304.164ZM41.4617 326.688C41.4397 324.906 41.0877 323.85 40.2297 322.926C39.4597 322.134 38.4037 321.694 37.1937 321.694C34.5977 321.694 32.7717 323.674 32.7717 326.512C32.7717 329.328 34.5537 331.264 37.1497 331.264C38.8877 331.264 40.2737 330.384 41.1097 328.8L39.9877 328.14C39.1737 329.394 38.3377 329.922 37.1937 329.922C35.5437 329.922 34.3777 328.602 34.3337 326.688H41.4617ZM39.9217 325.456H34.4217C34.7737 323.872 35.7637 322.97 37.1717 322.97C38.6897 322.97 39.7017 323.938 39.9217 325.456ZM46.5506 323.278V321.936H44.8786V318.526H43.4046V321.936H42.5466V323.278H43.4046V331H44.8786V323.278H46.5506ZM61.2385 321.936H59.5885L56.8605 328.074L54.1105 321.936H52.3725L56.8165 331.418L61.2385 321.936ZM71.3686 326.49C71.3686 323.784 69.2566 321.672 66.5506 321.672C63.8666 321.672 61.7326 323.784 61.7326 326.49C61.7326 329.174 63.8666 331.286 66.5506 331.286C69.2566 331.286 71.3686 329.174 71.3686 326.49ZM69.8286 326.402C69.8286 328.404 68.4426 329.9 66.5506 329.9C64.6586 329.9 63.2726 328.47 63.2726 326.49C63.2726 324.51 64.6586 323.08 66.5506 323.08C68.4426 323.08 69.8286 324.488 69.8286 326.402ZM80.5268 327.458V321.936H79.0528V327.216C79.0528 329.042 78.3928 329.856 76.8968 329.856C75.3568 329.856 74.6968 329.042 74.6968 327.216V321.936H73.2228V327.458C73.2228 328.668 73.4868 329.526 74.0808 330.142C74.7628 330.846 75.7748 331.264 76.8748 331.264C77.9748 331.264 79.0308 330.846 79.6688 330.142C80.2628 329.482 80.5268 328.668 80.5268 327.458ZM88.6496 328.338C88.6496 325.368 84.3596 325.808 84.3596 324.092C84.3596 323.476 84.8876 322.992 85.5256 322.992C86.0536 322.992 86.4936 323.278 86.8016 323.85L87.9456 323.256C87.4616 322.222 86.6696 321.694 85.5916 321.694C84.1176 321.694 82.9956 322.772 82.9956 324.202C82.9956 327.062 87.1756 326.402 87.1756 328.448C87.1756 329.328 86.4936 329.966 85.5916 329.966C84.6676 329.966 84.0956 329.416 83.7436 328.602L82.5336 329.13C83.0176 330.516 84.0956 331.286 85.5476 331.286C87.3076 331.286 88.6496 330.01 88.6496 328.338ZM104.454 326.688C104.432 324.906 104.08 323.85 103.222 322.926C102.452 322.134 101.396 321.694 100.186 321.694C97.5899 321.694 95.7639 323.674 95.7639 326.512C95.7639 329.328 97.5459 331.264 100.142 331.264C101.88 331.264 103.266 330.384 104.102 328.8L102.98 328.14C102.166 329.394 101.33 329.922 100.186 329.922C98.5359 329.922 97.3699 328.602 97.3259 326.688H104.454ZM102.914 325.456H97.4139C97.7659 323.872 98.7559 322.97 100.164 322.97C101.682 322.97 102.694 323.938 102.914 325.456ZM113.789 331V325.368C113.789 324.136 113.635 323.476 113.239 322.926C112.733 322.2 111.699 321.716 110.665 321.716C109.543 321.716 108.531 322.244 107.871 323.124V321.936H106.397V331H107.871V326.534C107.871 324.048 108.575 322.992 110.247 322.992C111.017 322.992 111.721 323.3 112.007 323.806C112.227 324.18 112.315 324.708 112.315 325.5V331H113.789ZM123.951 321.936H122.301L119.573 328.074L116.823 321.936H115.085L119.529 331.418L123.951 321.936ZM134.082 326.49C134.082 323.784 131.97 321.672 129.264 321.672C126.58 321.672 124.446 323.784 124.446 326.49C124.446 329.174 126.58 331.286 129.264 331.286C131.97 331.286 134.082 329.174 134.082 326.49ZM132.542 326.402C132.542 328.404 131.156 329.9 129.264 329.9C127.372 329.9 125.986 328.47 125.986 326.49C125.986 324.51 127.372 323.08 129.264 323.08C131.156 323.08 132.542 324.488 132.542 326.402ZM138.18 318.108C138.18 317.514 137.696 317.03 137.102 317.03C136.508 317.03 136.024 317.514 136.024 318.108C136.024 318.702 136.508 319.186 137.102 319.186C137.696 319.186 138.18 318.702 138.18 318.108ZM137.828 331V321.936H136.354V331H137.828ZM148.798 326.688C148.776 324.906 148.424 323.85 147.566 322.926C146.796 322.134 145.74 321.694 144.53 321.694C141.934 321.694 140.108 323.674 140.108 326.512C140.108 329.328 141.89 331.264 144.486 331.264C146.224 331.264 147.61 330.384 148.446 328.8L147.324 328.14C146.51 329.394 145.674 329.922 144.53 329.922C142.88 329.922 141.714 328.602 141.67 326.688H148.798ZM147.258 325.456H141.758C142.11 323.872 143.1 322.97 144.508 322.97C146.026 322.97 147.038 323.938 147.258 325.456ZM164.878 331V314.236H163.404V323.344C162.458 322.2 161.424 321.694 160.082 321.694C157.596 321.694 155.77 323.718 155.77 326.446C155.77 329.24 157.596 331.286 160.104 331.286C161.446 331.286 162.48 330.758 163.404 329.614V331H164.878ZM163.514 326.446C163.514 328.536 162.238 329.988 160.39 329.988C158.586 329.988 157.266 328.514 157.266 326.468C157.266 324.466 158.586 322.992 160.368 322.992C162.216 322.992 163.514 324.422 163.514 326.446ZM175.481 326.688C175.459 324.906 175.107 323.85 174.249 322.926C173.479 322.134 172.423 321.694 171.213 321.694C168.617 321.694 166.791 323.674 166.791 326.512C166.791 329.328 168.573 331.264 171.169 331.264C172.907 331.264 174.293 330.384 175.129 328.8L174.007 328.14C173.193 329.394 172.357 329.922 171.213 329.922C169.563 329.922 168.397 328.602 168.353 326.688H175.481ZM173.941 325.456H168.441C168.793 323.872 169.783 322.97 171.191 322.97C172.709 322.97 173.721 323.938 173.941 325.456ZM182.88 328.338C182.88 325.368 178.59 325.808 178.59 324.092C178.59 323.476 179.118 322.992 179.756 322.992C180.284 322.992 180.724 323.278 181.032 323.85L182.176 323.256C181.692 322.222 180.9 321.694 179.822 321.694C178.348 321.694 177.226 322.772 177.226 324.202C177.226 327.062 181.406 326.402 181.406 328.448C181.406 329.328 180.724 329.966 179.822 329.966C178.898 329.966 178.326 329.416 177.974 328.602L176.764 329.13C177.248 330.516 178.326 331.286 179.778 331.286C181.538 331.286 182.88 330.01 182.88 328.338ZM198.222 331V325.368C198.222 324.136 198.068 323.476 197.672 322.926C197.166 322.2 196.132 321.716 195.098 321.716C193.976 321.716 192.964 322.244 192.304 323.124V321.936H190.83V331H192.304V326.534C192.304 324.048 193.008 322.992 194.68 322.992C195.45 322.992 196.154 323.3 196.44 323.806C196.66 324.18 196.748 324.708 196.748 325.5V331H198.222ZM209.771 326.49C209.771 323.784 207.659 321.672 204.953 321.672C202.269 321.672 200.135 323.784 200.135 326.49C200.135 329.174 202.269 331.286 204.953 331.286C207.659 331.286 209.771 329.174 209.771 326.49ZM208.231 326.402C208.231 328.404 206.845 329.9 204.953 329.9C203.061 329.9 201.675 328.47 201.675 326.49C201.675 324.51 203.061 323.08 204.953 323.08C206.845 323.08 208.231 324.488 208.231 326.402ZM214.859 323.278V321.936H213.187V318.526H211.713V321.936H210.855V323.278H211.713V331H213.187V323.278H214.859ZM218.424 318.108C218.424 317.514 217.94 317.03 217.346 317.03C216.752 317.03 216.268 317.514 216.268 318.108C216.268 318.702 216.752 319.186 217.346 319.186C217.94 319.186 218.424 318.702 218.424 318.108ZM218.072 331V321.936H216.598V331H218.072ZM228.536 319.01V318.768C228.536 316.942 228.338 316.15 227.7 315.336C227.04 314.5 226.006 314.016 224.884 314.016C223.058 314.016 221.606 315.226 221.342 316.964C221.232 317.69 221.188 318.35 221.188 319.626V321.936H220.33V323.278H221.188V331H222.662V323.278H225.016V321.936H222.662V318.812C222.662 317.404 222.75 315.358 224.884 315.358C225.588 315.358 226.27 315.688 226.6 316.194C226.93 316.722 227.062 317.294 227.062 318.548V319.01H228.536ZM228.536 331V321.936H227.062V331H228.536ZM238.017 330.472V328.734C237.049 329.592 236.323 329.878 235.289 329.878C233.331 329.878 232.011 328.514 232.011 326.512C232.011 324.466 233.353 323.058 235.267 323.058C236.301 323.058 237.049 323.366 237.973 324.202V322.464C237.137 321.914 236.345 321.672 235.311 321.672C232.605 321.672 230.471 323.784 230.471 326.49C230.471 329.196 232.583 331.264 235.311 331.264C236.323 331.264 237.071 331.044 238.017 330.472ZM248.516 331V321.936H247.042V323.344C246.096 322.2 245.062 321.694 243.72 321.694C241.234 321.694 239.408 323.718 239.408 326.446C239.408 329.24 241.234 331.286 243.742 331.286C245.084 331.286 246.118 330.758 247.042 329.614V331H248.516ZM247.152 326.446C247.152 328.536 245.876 329.988 244.028 329.988C242.224 329.988 240.904 328.514 240.904 326.468C240.904 324.466 242.224 322.992 244.006 322.992C245.854 322.992 247.152 324.422 247.152 326.446ZM254.412 323.278V321.936H252.74V318.526H251.266V321.936H250.408V323.278H251.266V331H252.74V323.278H254.412ZM257.977 318.108C257.977 317.514 257.493 317.03 256.899 317.03C256.305 317.03 255.821 317.514 255.821 318.108C255.821 318.702 256.305 319.186 256.899 319.186C257.493 319.186 257.977 318.702 257.977 318.108ZM257.625 331V321.936H256.151V331H257.625ZM269.54 326.49C269.54 323.784 267.428 321.672 264.722 321.672C262.038 321.672 259.904 323.784 259.904 326.49C259.904 329.174 262.038 331.286 264.722 331.286C267.428 331.286 269.54 329.174 269.54 326.49ZM268 326.402C268 328.404 266.614 329.9 264.722 329.9C262.83 329.9 261.444 328.47 261.444 326.49C261.444 324.51 262.83 323.08 264.722 323.08C266.614 323.08 268 324.488 268 326.402ZM278.875 331V325.368C278.875 324.136 278.721 323.476 278.325 322.926C277.819 322.2 276.785 321.716 275.751 321.716C274.629 321.716 273.617 322.244 272.957 323.124V321.936H271.483V331H272.957V326.534C272.957 324.048 273.661 322.992 275.333 322.992C276.103 322.992 276.807 323.3 277.093 323.806C277.313 324.18 277.401 324.708 277.401 325.5V331H278.875ZM287.079 328.338C287.079 325.368 282.789 325.808 282.789 324.092C282.789 323.476 283.317 322.992 283.955 322.992C284.483 322.992 284.923 323.278 285.231 323.85L286.375 323.256C285.891 322.222 285.099 321.694 284.021 321.694C282.547 321.694 281.425 322.772 281.425 324.202C281.425 327.062 285.605 326.402 285.605 328.448C285.605 329.328 284.923 329.966 284.021 329.966C283.097 329.966 282.525 329.416 282.173 328.602L280.963 329.13C281.447 330.516 282.525 331.286 283.977 331.286C285.737 331.286 287.079 330.01 287.079 328.338ZM45.8973 357V340.236H44.4233V349.344C43.4773 348.2 42.4433 347.694 41.1013 347.694C38.6153 347.694 36.7893 349.718 36.7893 352.446C36.7893 355.24 38.6153 357.286 41.1233 357.286C42.4653 357.286 43.4993 356.758 44.4233 355.614V357H45.8973ZM44.5333 352.446C44.5333 354.536 43.2573 355.988 41.4093 355.988C39.6053 355.988 38.2853 354.514 38.2853 352.468C38.2853 350.466 39.6053 348.992 41.3873 348.992C43.2353 348.992 44.5333 350.422 44.5333 352.446ZM56.5007 352.688C56.4787 350.906 56.1267 349.85 55.2687 348.926C54.4987 348.134 53.4427 347.694 52.2327 347.694C49.6367 347.694 47.8107 349.674 47.8107 352.512C47.8107 355.328 49.5927 357.264 52.1887 357.264C53.9267 357.264 55.3127 356.384 56.1487 354.8L55.0267 354.14C54.2127 355.394 53.3767 355.922 52.2327 355.922C50.5827 355.922 49.4167 354.602 49.3727 352.688H56.5007ZM54.9607 351.456H49.4607C49.8127 349.872 50.8027 348.97 52.2107 348.97C53.7287 348.97 54.7407 349.938 54.9607 351.456ZM69.4569 348.112C69.0829 347.848 68.5989 347.716 68.1149 347.716C67.1249 347.716 66.3329 348.266 65.7829 349.278V347.936H64.3089V357H65.7829V352.336C65.7829 350.752 66.0469 349.124 67.8289 349.124C68.2469 349.124 68.5109 349.234 68.7969 349.388L69.4569 348.112ZM79.0906 357V347.936H77.6166V349.344C76.6706 348.2 75.6366 347.694 74.2946 347.694C71.8086 347.694 69.9826 349.718 69.9826 352.446C69.9826 355.24 71.8086 357.286 74.3166 357.286C75.6586 357.286 76.6926 356.758 77.6166 355.614V357H79.0906ZM77.7266 352.446C77.7266 354.536 76.4506 355.988 74.6026 355.988C72.7986 355.988 71.4786 354.514 71.4786 352.468C71.4786 350.466 72.7986 348.992 74.5806 348.992C76.4286 348.992 77.7266 350.422 77.7266 352.446ZM90.9481 352.49C90.9481 349.674 89.1221 347.65 86.5921 347.65C85.2501 347.65 84.2381 348.156 83.3141 349.3V347.936H81.8401V362.236H83.3141V355.636C84.3041 356.824 85.2941 357.242 86.6361 357.242C89.1221 357.242 90.9481 355.24 90.9481 352.49ZM89.4521 352.468C89.4521 354.47 88.1321 355.944 86.3501 355.944C84.5021 355.944 83.2041 354.514 83.2041 352.49C83.2041 350.4 84.5021 348.948 86.3501 348.948C88.1321 348.948 89.4521 350.422 89.4521 352.468ZM101.97 352.49C101.97 349.674 100.144 347.65 97.6136 347.65C96.2716 347.65 95.2596 348.156 94.3356 349.3V347.936H92.8616V362.236H94.3356V355.636C95.3256 356.824 96.3156 357.242 97.6576 357.242C100.144 357.242 101.97 355.24 101.97 352.49ZM100.474 352.468C100.474 354.47 99.1536 355.944 97.3716 355.944C95.5236 355.944 94.2256 354.514 94.2256 352.49C94.2256 350.4 95.5236 348.948 97.3716 348.948C99.1536 348.948 100.474 350.422 100.474 352.468ZM111.737 352.688C111.715 350.906 111.363 349.85 110.505 348.926C109.735 348.134 108.679 347.694 107.469 347.694C104.873 347.694 103.047 349.674 103.047 352.512C103.047 355.328 104.829 357.264 107.425 357.264C109.163 357.264 110.549 356.384 111.385 354.8L110.263 354.14C109.449 355.394 108.613 355.922 107.469 355.922C105.819 355.922 104.653 354.602 104.609 352.688H111.737ZM110.197 351.456H104.697C105.049 349.872 106.039 348.97 107.447 348.97C108.965 348.97 109.977 349.938 110.197 351.456ZM115.154 357V340.236H113.68V357H115.154ZM120.53 356.164C120.53 355.614 120.068 355.152 119.496 355.152C118.924 355.152 118.462 355.614 118.462 356.164C118.462 356.736 118.924 357.198 119.496 357.198C120.068 357.198 120.53 356.736 120.53 356.164ZM140.422 342.304H138.75L134.416 353.634L130.104 342.304H128.344L134.35 357.704L140.422 342.304ZM149.83 352.49C149.83 349.784 147.718 347.672 145.012 347.672C142.328 347.672 140.194 349.784 140.194 352.49C140.194 355.174 142.328 357.286 145.012 357.286C147.718 357.286 149.83 355.174 149.83 352.49ZM148.29 352.402C148.29 354.404 146.904 355.9 145.012 355.9C143.12 355.9 141.734 354.47 141.734 352.49C141.734 350.51 143.12 349.08 145.012 349.08C146.904 349.08 148.29 350.488 148.29 352.402ZM158.988 353.458V347.936H157.514V353.216C157.514 355.042 156.854 355.856 155.358 355.856C153.818 355.856 153.158 355.042 153.158 353.216V347.936H151.684V353.458C151.684 354.668 151.948 355.526 152.542 356.142C153.224 356.846 154.236 357.264 155.336 357.264C156.436 357.264 157.492 356.846 158.13 356.142C158.724 355.482 158.988 354.668 158.988 353.458ZM167.111 354.338C167.111 351.368 162.821 351.808 162.821 350.092C162.821 349.476 163.349 348.992 163.987 348.992C164.515 348.992 164.955 349.278 165.263 349.85L166.407 349.256C165.923 348.222 165.131 347.694 164.053 347.694C162.579 347.694 161.457 348.772 161.457 350.202C161.457 353.062 165.637 352.402 165.637 354.448C165.637 355.328 164.955 355.966 164.053 355.966C163.129 355.966 162.557 355.416 162.205 354.602L160.995 355.13C161.479 356.516 162.557 357.286 164.009 357.286C165.769 357.286 167.111 356.01 167.111 354.338ZM182.453 357V351.368C182.453 350.136 182.299 349.476 181.903 348.926C181.397 348.2 180.363 347.716 179.329 347.716C178.207 347.716 177.195 348.244 176.535 349.124V347.936H175.061V357H176.535V352.534C176.535 350.048 177.239 348.992 178.911 348.992C179.681 348.992 180.385 349.3 180.671 349.806C180.891 350.18 180.979 350.708 180.979 351.5V357H182.453ZM188.105 342.326L186.565 341.776L184.783 346.88L185.685 347.254L188.105 342.326ZM198.823 357V347.936H197.349V349.344C196.403 348.2 195.369 347.694 194.027 347.694C191.541 347.694 189.715 349.718 189.715 352.446C189.715 355.24 191.541 357.286 194.049 357.286C195.391 357.286 196.425 356.758 197.349 355.614V357H198.823ZM197.459 352.446C197.459 354.536 196.183 355.988 194.335 355.988C192.531 355.988 191.211 354.514 191.211 352.468C191.211 350.466 192.531 348.992 194.313 348.992C196.161 348.992 197.459 350.422 197.459 352.446ZM208.987 347.936H207.337L204.609 354.074L201.859 347.936H200.121L204.565 357.418L208.987 347.936ZM218.171 352.688C218.149 350.906 217.797 349.85 216.939 348.926C216.169 348.134 215.113 347.694 213.903 347.694C211.307 347.694 209.481 349.674 209.481 352.512C209.481 355.328 211.263 357.264 213.859 357.264C215.597 357.264 216.983 356.384 217.819 354.8L216.697 354.14C215.883 355.394 215.047 355.922 213.903 355.922C212.253 355.922 211.087 354.602 211.043 352.688H218.171ZM216.631 351.456H211.131C211.483 349.872 212.473 348.97 213.881 348.97C215.399 348.97 216.411 349.938 216.631 351.456ZM228.298 347.936H219.96V349.278H225.416L218.882 357H228.122V355.658H221.764L228.298 347.936ZM247.878 357V351.192C247.878 350.136 247.746 349.542 247.394 348.97C246.888 348.178 245.986 347.716 244.952 347.716C243.808 347.716 242.994 348.156 242.136 349.278C241.542 348.244 240.728 347.716 239.65 347.716C238.682 347.716 237.956 348.09 237.164 348.97V347.936H235.69V357H237.164V352.094C237.164 351.104 237.274 350.51 237.538 350.026C237.868 349.388 238.55 348.992 239.254 348.992C240.486 348.992 241.08 349.872 241.08 351.676V357H242.554V352.028C242.554 349.982 243.236 348.992 244.644 348.992C245.81 348.992 246.404 349.784 246.404 351.39V357H247.878ZM257.661 346.374L254.163 343.426L250.599 346.374L251.215 347.166L254.141 345.164L257.023 347.188L257.661 346.374ZM258.475 352.688C258.453 350.906 258.101 349.85 257.243 348.926C256.473 348.134 255.417 347.694 254.207 347.694C251.611 347.694 249.785 349.674 249.785 352.512C249.785 355.328 251.567 357.264 254.163 357.264C255.901 357.264 257.287 356.384 258.123 354.8L257.001 354.14C256.187 355.394 255.351 355.922 254.207 355.922C252.557 355.922 251.391 354.602 251.347 352.688H258.475ZM256.935 351.456H251.435C251.787 349.872 252.777 348.97 254.185 348.97C255.703 348.97 256.715 349.938 256.935 351.456ZM272.606 357V351.192C272.606 350.136 272.474 349.542 272.122 348.97C271.616 348.178 270.714 347.716 269.68 347.716C268.536 347.716 267.722 348.156 266.864 349.278C266.27 348.244 265.456 347.716 264.378 347.716C263.41 347.716 262.684 348.09 261.892 348.97V347.936H260.418V357H261.892V352.094C261.892 351.104 262.002 350.51 262.266 350.026C262.596 349.388 263.278 348.992 263.982 348.992C265.214 348.992 265.808 349.872 265.808 351.676V357H267.282V352.028C267.282 349.982 267.964 348.992 269.372 348.992C270.538 348.992 271.132 349.784 271.132 351.39V357H272.606ZM283.204 352.688C283.182 350.906 282.83 349.85 281.972 348.926C281.202 348.134 280.146 347.694 278.936 347.694C276.34 347.694 274.514 349.674 274.514 352.512C274.514 355.328 276.296 357.264 278.892 357.264C280.63 357.264 282.016 356.384 282.852 354.8L281.73 354.14C280.916 355.394 280.08 355.922 278.936 355.922C277.286 355.922 276.12 354.602 276.076 352.688H283.204ZM281.664 351.456H276.164C276.516 349.872 277.506 348.97 278.914 348.97C280.432 348.97 281.444 349.938 281.664 351.456ZM46.2284 378.49C46.2284 375.674 44.4024 373.65 41.8724 373.65C40.5304 373.65 39.5184 374.156 38.5944 375.3V373.936H37.1204V388.236H38.5944V381.636C39.5844 382.824 40.5744 383.242 41.9164 383.242C44.4024 383.242 46.2284 381.24 46.2284 378.49ZM44.7324 378.468C44.7324 380.47 43.4124 381.944 41.6304 381.944C39.7824 381.944 38.4844 380.514 38.4844 378.49C38.4844 376.4 39.7824 374.948 41.6304 374.948C43.4124 374.948 44.7324 376.422 44.7324 378.468ZM49.6159 383V366.236H48.1419V383H49.6159ZM59.6118 379.458V373.936H58.1378V379.216C58.1378 381.042 57.4778 381.856 55.9818 381.856C54.4418 381.856 53.7818 381.042 53.7818 379.216V373.936H52.3078V379.458C52.3078 380.668 52.5718 381.526 53.1658 382.142C53.8478 382.846 54.8598 383.264 55.9598 383.264C57.0598 383.264 58.1158 382.846 58.7538 382.142C59.3478 381.482 59.6118 380.668 59.6118 379.458ZM67.7346 380.338C67.7346 377.368 63.4446 377.808 63.4446 376.092C63.4446 375.476 63.9726 374.992 64.6106 374.992C65.1386 374.992 65.5786 375.278 65.8866 375.85L67.0306 375.256C66.5466 374.222 65.7546 373.694 64.6766 373.694C63.2026 373.694 62.0806 374.772 62.0806 376.202C62.0806 379.062 66.2606 378.402 66.2606 380.448C66.2606 381.328 65.5786 381.966 64.6766 381.966C63.7526 381.966 63.1806 381.416 62.8286 380.602L61.6186 381.13C62.1026 382.516 63.1806 383.286 64.6326 383.286C66.3926 383.286 67.7346 382.01 67.7346 380.338ZM84.7928 378.446C84.7928 375.718 82.9668 373.694 80.5028 373.694C79.1828 373.694 78.1928 374.156 77.1588 375.344V366.236H75.6848V383H77.1588V381.68C78.1268 382.802 79.1168 383.286 80.4368 383.286C82.9668 383.286 84.7928 381.262 84.7928 378.446ZM83.2968 378.468C83.2968 380.514 81.9768 381.988 80.1948 381.988C78.3468 381.988 77.0488 380.536 77.0488 378.49C77.0488 376.422 78.3468 374.992 80.1948 374.992C81.9768 374.992 83.2968 376.466 83.2968 378.468ZM94.5603 378.688C94.5383 376.906 94.1863 375.85 93.3283 374.926C92.5583 374.134 91.5023 373.694 90.2923 373.694C87.6963 373.694 85.8703 375.674 85.8703 378.512C85.8703 381.328 87.6523 383.264 90.2483 383.264C91.9863 383.264 93.3723 382.384 94.2083 380.8L93.0863 380.14C92.2723 381.394 91.4363 381.922 90.2923 381.922C88.6423 381.922 87.4763 380.602 87.4323 378.688H94.5603ZM93.0203 377.456H87.5203C87.8723 375.872 88.8623 374.97 90.2703 374.97C91.7883 374.97 92.8003 375.938 93.0203 377.456ZM101.959 380.338C101.959 377.368 97.6692 377.808 97.6692 376.092C97.6692 375.476 98.1972 374.992 98.8352 374.992C99.3632 374.992 99.8032 375.278 100.111 375.85L101.255 375.256C100.771 374.222 99.9792 373.694 98.9012 373.694C97.4272 373.694 96.3052 374.772 96.3052 376.202C96.3052 379.062 100.485 378.402 100.485 380.448C100.485 381.328 99.8032 381.966 98.9012 381.966C97.9772 381.966 97.4052 381.416 97.0532 380.602L95.8432 381.13C96.3272 382.516 97.4052 383.286 98.8572 383.286C100.617 383.286 101.959 382.01 101.959 380.338ZM112.844 378.49C112.844 375.784 110.732 373.672 108.026 373.672C105.342 373.672 103.208 375.784 103.208 378.49C103.208 381.174 105.342 383.286 108.026 383.286C110.732 383.286 112.844 381.174 112.844 378.49ZM111.304 378.402C111.304 380.404 109.918 381.9 108.026 381.9C106.134 381.9 104.748 380.47 104.748 378.49C104.748 376.51 106.134 375.08 108.026 375.08C109.918 375.08 111.304 376.488 111.304 378.402ZM116.942 370.108C116.942 369.514 116.458 369.03 115.864 369.03C115.27 369.03 114.786 369.514 114.786 370.108C114.786 370.702 115.27 371.186 115.864 371.186C116.458 371.186 116.942 370.702 116.942 370.108ZM116.59 383V373.936H115.116V383H116.59ZM127.098 383V377.368C127.098 376.136 126.944 375.476 126.548 374.926C126.042 374.2 125.008 373.716 123.974 373.716C122.852 373.716 121.84 374.244 121.18 375.124V373.936H119.706V383H121.18V378.534C121.18 376.048 121.884 374.992 123.556 374.992C124.326 374.992 125.03 375.3 125.316 375.806C125.536 376.18 125.624 376.708 125.624 377.5V383H127.098ZM143.984 383V366.236H142.51V375.344C141.564 374.2 140.53 373.694 139.188 373.694C136.702 373.694 134.876 375.718 134.876 378.446C134.876 381.24 136.702 383.286 139.21 383.286C140.552 383.286 141.586 382.758 142.51 381.614V383H143.984ZM142.62 378.446C142.62 380.536 141.344 381.988 139.496 381.988C137.692 381.988 136.372 380.514 136.372 378.468C136.372 376.466 137.692 374.992 139.474 374.992C141.322 374.992 142.62 376.422 142.62 378.446ZM154.588 378.688C154.566 376.906 154.214 375.85 153.356 374.926C152.586 374.134 151.53 373.694 150.32 373.694C147.724 373.694 145.898 375.674 145.898 378.512C145.898 381.328 147.68 383.264 150.276 383.264C152.014 383.264 153.4 382.384 154.236 380.8L153.114 380.14C152.3 381.394 151.464 381.922 150.32 381.922C148.67 381.922 147.504 380.602 147.46 378.688H154.588ZM153.048 377.456H147.548C147.9 375.872 148.89 374.97 150.298 374.97C151.816 374.97 152.828 375.938 153.048 377.456ZM169.81 373.936H168.16L165.432 380.074L162.682 373.936H160.944L165.388 383.418L169.81 373.936ZM179.94 378.49C179.94 375.784 177.828 373.672 175.122 373.672C172.438 373.672 170.304 375.784 170.304 378.49C170.304 381.174 172.438 383.286 175.122 383.286C177.828 383.286 179.94 381.174 179.94 378.49ZM178.4 378.402C178.4 380.404 177.014 381.9 175.122 381.9C173.23 381.9 171.844 380.47 171.844 378.49C171.844 376.51 173.23 375.08 175.122 375.08C177.014 375.08 178.4 376.488 178.4 378.402ZM189.098 379.458V373.936H187.624V379.216C187.624 381.042 186.964 381.856 185.468 381.856C183.928 381.856 183.268 381.042 183.268 379.216V373.936H181.794V379.458C181.794 380.668 182.058 381.526 182.652 382.142C183.334 382.846 184.346 383.264 185.446 383.264C186.546 383.264 187.602 382.846 188.24 382.142C188.834 381.482 189.098 380.668 189.098 379.458ZM197.221 380.338C197.221 377.368 192.931 377.808 192.931 376.092C192.931 375.476 193.459 374.992 194.097 374.992C194.625 374.992 195.065 375.278 195.373 375.85L196.517 375.256C196.033 374.222 195.241 373.694 194.163 373.694C192.689 373.694 191.567 374.772 191.567 376.202C191.567 379.062 195.747 378.402 195.747 380.448C195.747 381.328 195.065 381.966 194.163 381.966C193.239 381.966 192.667 381.416 192.315 380.602L191.105 381.13C191.589 382.516 192.667 383.286 194.119 383.286C195.879 383.286 197.221 382.01 197.221 380.338ZM210.627 380.338C210.627 377.368 206.337 377.808 206.337 376.092C206.337 375.476 206.865 374.992 207.503 374.992C208.031 374.992 208.471 375.278 208.779 375.85L209.923 375.256C209.439 374.222 208.647 373.694 207.569 373.694C206.095 373.694 204.973 374.772 204.973 376.202C204.973 379.062 209.153 378.402 209.153 380.448C209.153 381.328 208.471 381.966 207.569 381.966C206.645 381.966 206.073 381.416 205.721 380.602L204.511 381.13C204.995 382.516 206.073 383.286 207.525 383.286C209.285 383.286 210.627 382.01 210.627 380.338ZM221.512 378.49C221.512 375.784 219.4 373.672 216.694 373.672C214.01 373.672 211.876 375.784 211.876 378.49C211.876 381.174 214.01 383.286 216.694 383.286C219.4 383.286 221.512 381.174 221.512 378.49ZM219.972 378.402C219.972 380.404 218.586 381.9 216.694 381.9C214.802 381.9 213.416 380.47 213.416 378.49C213.416 376.51 214.802 375.08 216.694 375.08C218.586 375.08 219.972 376.488 219.972 378.402ZM230.67 379.458V373.936H229.196V379.216C229.196 381.042 228.536 381.856 227.04 381.856C225.5 381.856 224.84 381.042 224.84 379.216V373.936H223.366V379.458C223.366 380.668 223.63 381.526 224.224 382.142C224.906 382.846 225.918 383.264 227.018 383.264C228.118 383.264 229.174 382.846 229.812 382.142C230.406 381.482 230.67 380.668 230.67 379.458ZM240.751 373.936H239.101L236.373 380.074L233.623 373.936H231.885L236.329 383.418L240.751 373.936ZM249.935 378.688C249.913 376.906 249.561 375.85 248.703 374.926C247.933 374.134 246.877 373.694 245.667 373.694C243.071 373.694 241.245 375.674 241.245 378.512C241.245 381.328 243.027 383.264 245.623 383.264C247.361 383.264 248.747 382.384 249.583 380.8L248.461 380.14C247.647 381.394 246.811 381.922 245.667 381.922C244.017 381.922 242.851 380.602 242.807 378.688H249.935ZM248.395 377.456H242.895C243.247 375.872 244.237 374.97 245.645 374.97C247.163 374.97 248.175 375.938 248.395 377.456ZM259.27 383V377.368C259.27 376.136 259.116 375.476 258.72 374.926C258.214 374.2 257.18 373.716 256.146 373.716C255.024 373.716 254.012 374.244 253.352 375.124V373.936H251.878V383H253.352V378.534C253.352 376.048 254.056 374.992 255.728 374.992C256.498 374.992 257.202 375.3 257.488 375.806C257.708 376.18 257.796 376.708 257.796 377.5V383H259.27ZM264.175 370.108C264.175 369.514 263.691 369.03 263.097 369.03C262.503 369.03 262.019 369.514 262.019 370.108C262.019 370.702 262.503 371.186 263.097 371.186C263.691 371.186 264.175 370.702 264.175 370.108ZM263.823 383V373.936H262.349V383H263.823ZM272.087 374.112C271.713 373.848 271.229 373.716 270.745 373.716C269.755 373.716 268.963 374.266 268.413 375.278V373.936H266.939V383H268.413V378.336C268.413 376.752 268.677 375.124 270.459 375.124C270.877 375.124 271.141 375.234 271.427 375.388L272.087 374.112ZM281.932 379.854V368.304H280.304V379.854H281.932ZM282.152 382.164C282.152 381.614 281.69 381.152 281.118 381.152C280.546 381.152 280.084 381.614 280.084 382.164C280.084 382.736 280.546 383.198 281.118 383.198C281.69 383.198 282.152 382.736 282.152 382.164Z" fill="black"/>
<path d="M207.85 30.3592C206.417 29.1423 193.583 18.6426 182.046 23.0928C170.032 27.7169 173.786 43.0492 161.669 53.3751C144.671 67.873 122.451 50.5242 109.89 63.0056C98.8657 73.9921 100.948 102.362 117.024 118.703C131.121 133.027 155.423 137.547 167.165 127.847C180.818 116.582 170.544 95.3391 185.084 84.6308C196.826 76.0086 209.147 84.5265 217.407 75.9043C226.145 66.7257 222.118 42.3886 207.85 30.3592Z" fill="#ECF4FF"/>
<path d="M143.443 123.709C141.497 123.709 139.415 123.362 137.265 122.701C136.992 122.632 136.855 122.319 136.923 122.04C136.992 121.762 137.299 121.623 137.572 121.693C141.19 122.84 144.569 122.979 147.436 122.11C147.709 122.04 147.982 122.18 148.085 122.458C148.153 122.736 148.016 123.014 147.743 123.118C146.378 123.501 144.91 123.709 143.443 123.709ZM132.623 120.719C132.554 120.719 132.452 120.685 132.384 120.65C131.564 120.233 130.745 119.746 129.926 119.259C129.687 119.12 129.619 118.772 129.755 118.529C129.892 118.286 130.233 118.216 130.472 118.355C131.257 118.842 132.042 119.294 132.862 119.711C133.1 119.85 133.203 120.163 133.1 120.406C132.998 120.615 132.793 120.719 132.623 120.719ZM154.228 117.973C154.126 117.973 154.058 117.938 153.955 117.903C153.716 117.764 153.648 117.416 153.785 117.173C154.194 116.478 154.604 115.678 154.979 114.739C155.082 114.461 155.389 114.357 155.662 114.461C155.935 114.565 156.037 114.878 155.935 115.157C155.56 116.13 155.15 116.999 154.672 117.729C154.57 117.868 154.399 117.973 154.228 117.973ZM123.612 113.801C123.475 113.801 123.339 113.731 123.236 113.627C120.949 111.019 119.072 108.029 117.604 104.692C117.502 104.413 117.604 104.135 117.877 103.996C118.15 103.892 118.424 103.996 118.56 104.274C119.994 107.508 121.837 110.428 124.055 112.966C124.26 113.175 124.226 113.522 124.021 113.696C123.851 113.766 123.714 113.801 123.612 113.801ZM157.061 110.463C157.027 110.463 156.959 110.463 156.925 110.428C156.652 110.359 156.515 110.046 156.584 109.768C157.437 106.882 158.495 103.301 160.611 99.9633C160.782 99.7199 161.089 99.6504 161.328 99.8242C161.567 99.998 161.635 100.311 161.464 100.554C159.417 103.753 158.393 107.264 157.573 110.081C157.505 110.324 157.3 110.463 157.061 110.463ZM116.273 100.068C116.034 100.068 115.829 99.9285 115.795 99.6851C115.522 98.7812 115.317 97.8425 115.147 96.9037C115.079 96.6256 115.283 96.3475 115.556 96.2779C115.829 96.2084 116.103 96.417 116.171 96.6951C116.341 97.5991 116.546 98.503 116.785 99.3722C116.853 99.6504 116.717 99.9285 116.444 100.033C116.376 100.033 116.307 100.068 116.273 100.068ZM167.062 94.6439C166.892 94.6439 166.721 94.5743 166.618 94.4005C166.448 94.1571 166.516 93.8442 166.755 93.6704C167.54 93.1489 168.359 92.6969 169.213 92.2797C169.486 92.1754 169.759 92.2797 169.895 92.5231C170.032 92.8012 169.895 93.0793 169.656 93.2184C168.837 93.6008 168.052 94.0528 167.301 94.5396C167.267 94.6091 167.165 94.6439 167.062 94.6439ZM174.367 91.6539C174.128 91.6539 173.923 91.48 173.855 91.2367C173.786 90.9585 173.991 90.6804 174.264 90.6109C176.449 90.1589 178.872 89.9155 181.876 89.9155C182.695 89.9155 183.582 89.9155 184.675 89.9503C184.948 89.9503 185.186 90.1937 185.186 90.4718C185.186 90.7499 184.948 90.9933 184.675 90.9933C183.616 90.9585 182.729 90.9585 181.91 90.9585C178.974 90.9585 176.653 91.1671 174.503 91.6191C174.435 91.6539 174.401 91.6539 174.367 91.6539ZM193.242 91.2367C192.969 91.2367 192.73 91.0281 192.73 90.7152C192.73 90.437 192.935 90.1937 193.242 90.1937C194.232 90.1589 195.119 90.0894 195.938 89.9851C196.211 89.9503 196.484 90.1589 196.518 90.437C196.553 90.7152 196.348 90.9933 196.075 91.0281C195.187 91.1324 194.266 91.2019 193.242 91.2367ZM200.956 89.7417C200.751 89.7417 200.58 89.6374 200.478 89.4288C200.375 89.1506 200.478 88.8725 200.751 88.7334C202.389 88.0033 203.755 86.9951 204.915 85.6739C205.939 84.5266 206.792 83.1707 207.475 81.6062C207.577 81.328 207.885 81.2237 208.158 81.328C208.431 81.4323 208.533 81.7452 208.431 82.0234C207.714 83.6922 206.792 85.1524 205.7 86.3693C204.403 87.8295 202.935 88.9073 201.16 89.6722C201.092 89.7417 201.024 89.7417 200.956 89.7417ZM115.317 88.5944C115.283 88.5944 115.249 88.5944 115.249 88.5944C114.976 88.5596 114.771 88.2815 114.805 88.0033C115.249 85.1176 116.239 82.7187 117.741 80.9456C118.458 80.1112 119.209 79.4158 120.062 78.8595C120.301 78.6857 120.608 78.7552 120.779 78.9986C120.949 79.242 120.881 79.5549 120.642 79.7287C119.857 80.2502 119.174 80.876 118.526 81.6409C117.126 83.275 116.239 85.5001 115.829 88.1772C115.795 88.4205 115.591 88.5944 115.317 88.5944ZM125.148 77.9904C124.909 77.9904 124.704 77.8165 124.636 77.5732C124.601 77.295 124.772 77.0169 125.045 76.9821C125.83 76.843 126.718 76.7387 127.81 76.6344C128.083 76.5997 128.356 76.8083 128.356 77.1212C128.39 77.3993 128.185 77.6775 127.878 77.6775C126.82 77.7818 125.967 77.8861 125.182 78.0251C125.216 77.9904 125.182 77.9904 125.148 77.9904ZM136.445 76.6692C136.206 76.6692 136.002 76.4954 135.933 76.252C135.865 75.9739 136.036 75.6957 136.309 75.6262C139.039 74.9656 141.36 73.8531 143.374 72.1147C143.92 71.6627 144.432 71.176 144.876 70.6892C145.081 70.4806 145.388 70.4806 145.593 70.6545C145.798 70.8631 145.798 71.176 145.627 71.3846C145.149 71.9061 144.603 72.4276 144.023 72.9143C141.872 74.7222 139.415 75.9391 136.514 76.6344C136.514 76.6692 136.48 76.6692 136.445 76.6692ZM209.83 73.8531C209.523 73.8183 209.318 73.5749 209.318 73.2968C209.352 72.671 209.386 72.0452 209.386 71.3846C209.386 71.1064 209.386 70.8283 209.386 70.5154C209.386 70.2373 209.591 69.9939 209.898 69.9939C210.171 69.9939 210.41 70.2025 210.41 70.5154C210.41 70.7935 210.41 71.1064 210.41 71.3846C210.41 72.0452 210.376 72.7057 210.342 73.3663C210.342 73.6445 210.103 73.8531 209.83 73.8531ZM148.085 67.2125C148.016 67.2125 147.948 67.2125 147.88 67.1777C147.607 67.0734 147.504 66.7605 147.607 66.4824C147.948 65.6828 148.255 64.8483 148.494 63.9096C148.562 63.6315 148.835 63.4577 149.109 63.5272C149.382 63.5967 149.552 63.8749 149.484 64.153C149.245 65.1265 148.904 66.0304 148.562 66.8648C148.46 67.1082 148.255 67.2125 148.085 67.2125ZM209.386 65.8218C209.147 65.8218 208.909 65.648 208.874 65.3699C208.328 61.9974 207.338 58.6598 205.939 55.4612C205.837 55.183 205.939 54.9049 206.212 54.7658C206.485 54.6615 206.758 54.7658 206.895 55.044C208.328 58.3121 209.318 61.7541 209.898 65.2308C209.932 65.5089 209.762 65.7871 209.489 65.8218C209.455 65.8218 209.421 65.8218 209.386 65.8218ZM150.098 55.9132C150.064 55.9132 150.064 55.9132 150.098 55.9132C149.791 55.8784 149.586 55.635 149.586 55.3569L149.621 54.4529C149.791 51.2196 149.996 47.9167 150.781 44.8224C150.849 44.5443 151.122 44.3704 151.395 44.44C151.668 44.5095 151.839 44.7876 151.771 45.0658C150.986 48.0558 150.815 51.3239 150.645 54.4877L150.61 55.3916C150.576 55.7046 150.371 55.9132 150.098 55.9132ZM202.184 48.1948C202.014 48.1948 201.877 48.1253 201.775 47.9862C201.229 47.2561 200.683 46.4912 200.102 45.7959C199.932 45.5873 199.932 45.2396 200.171 45.0658C200.375 44.8919 200.717 44.8919 200.887 45.1353C201.468 45.8654 202.048 46.5955 202.594 47.3604C202.765 47.6038 202.696 47.9167 202.492 48.0905C202.389 48.1601 202.287 48.1948 202.184 48.1948ZM196.86 42.2149C196.723 42.2149 196.621 42.1801 196.518 42.0758L196.416 41.9715C193.924 39.7464 191.091 37.869 187.917 36.3044C187.678 36.1654 187.542 35.8525 187.678 35.6091C187.815 35.3657 188.122 35.2266 188.361 35.3657C191.603 36.965 194.539 38.912 197.099 41.1718L197.201 41.2761C197.406 41.45 197.44 41.7977 197.235 42.0063C197.167 42.1453 197.03 42.2149 196.86 42.2149ZM153.273 40.6503C153.17 40.6503 153.102 40.6156 153 40.5808C152.761 40.4417 152.692 40.0941 152.829 39.8507C153.341 39.051 153.887 38.2514 154.536 37.5561C154.74 37.3475 155.048 37.3127 155.252 37.5213C155.457 37.7299 155.491 38.0428 155.287 38.2514C154.706 38.912 154.16 39.6421 153.682 40.407C153.614 40.5808 153.443 40.6503 153.273 40.6503ZM162.079 33.7317C161.874 33.7317 161.669 33.5926 161.601 33.384C161.499 33.1058 161.635 32.8277 161.908 32.7234C164.639 31.7499 167.745 31.2632 171.09 31.2632C171.465 31.2632 171.875 31.2632 172.284 31.298C172.558 31.298 172.796 31.5413 172.762 31.8195C172.762 32.0976 172.523 32.341 172.25 32.3062C171.875 32.3062 171.499 32.2714 171.09 32.2714C167.847 32.2714 164.878 32.7582 162.25 33.6621C162.181 33.7317 162.147 33.7317 162.079 33.7317ZM180.067 33.4535C180.033 33.4535 179.998 33.4535 179.93 33.4535C179.043 33.2449 178.155 33.0363 177.268 32.8972C176.995 32.8625 176.79 32.5843 176.858 32.3062C176.892 32.0281 177.165 31.8195 177.438 31.889C178.36 32.0628 179.247 32.2367 180.169 32.48C180.442 32.5496 180.613 32.8277 180.544 33.1058C180.51 33.2797 180.306 33.4535 180.067 33.4535Z" fill="#E0E8F3"/>
<path d="M140.132 112.584C133.442 112.584 128.015 107.056 128.015 100.241V54.6963C128.015 47.8819 133.442 42.3539 140.132 42.3539H184.845C191.535 42.3539 196.962 47.8819 196.962 54.6963V100.241C196.962 107.056 191.535 112.584 184.845 112.584H140.132Z" fill="#191919"/>
<path d="M184.845 47.6038H140.132C136.275 47.6038 133.169 50.7676 133.169 54.6963V77.4688V100.241C133.169 104.17 136.275 107.334 140.132 107.334H184.845C188.702 107.334 191.808 104.17 191.808 100.241V77.4688V54.6963C191.808 50.8023 188.702 47.6038 184.845 47.6038Z" fill="#B4BFD2"/>
<path d="M133.169 77.4688V100.241C133.169 104.17 136.275 107.334 140.132 107.334H184.845C188.702 107.334 191.808 104.17 191.808 100.241V77.4688H133.169Z" fill="white"/>
<path d="M191.808 77.4687L194.436 60.398C194.982 56.8518 192.286 53.6184 188.736 53.6184H136.241C132.691 53.6184 129.994 56.8518 130.54 60.398L133.169 77.4687H191.808Z" fill="white"/>
<path d="M149.279 83.9008C151.191 82.2319 152.692 80.8412 153.785 79.7635C154.877 78.6857 155.798 77.5731 156.549 76.391C157.266 75.2089 157.642 74.0616 157.642 72.8795C157.642 71.6627 157.369 70.724 156.788 70.0286C156.208 69.3333 155.321 68.9856 154.126 68.9856C152.966 68.9856 152.044 69.3681 151.395 70.1329C150.747 70.8978 150.406 71.9061 150.371 73.1577H147.095C147.163 70.863 147.846 69.0899 149.143 67.8731C150.44 66.6562 152.078 66.0304 154.092 66.0304C156.242 66.0304 157.949 66.6214 159.143 67.8383C160.372 69.0551 160.987 70.6544 160.987 72.6709C160.987 74.1312 160.611 75.5218 159.894 76.8778C159.178 78.2337 158.324 79.4158 157.3 80.4936C156.31 81.5366 155.013 82.7882 153.477 84.1789L152.146 85.3957H161.567V88.2814H147.129V85.7782L149.279 83.9008Z" fill="url(#paint0_linear_4772_3624)"/>
<path d="M178.258 69.1942L169.997 88.5944H166.584L174.947 69.5419H163.956V66.6215H178.292V69.1942H178.258Z" fill="url(#paint1_linear_4772_3624)"/>
<path d="M190.295 119.256C197.628 119.256 203.572 113.201 203.572 105.732C203.572 98.2626 197.628 92.2075 190.295 92.2075C182.962 92.2075 177.017 98.2626 177.017 105.732C177.017 113.201 182.962 119.256 190.295 119.256Z" fill="#FF2A2A"/>
<path d="M194.891 108.857C194.175 108.199 193.754 107.282 193.706 106.311L193.599 104.092C193.507 102.219 191.932 100.771 190.089 100.868C188.246 100.964 186.818 102.568 186.909 104.441L187.017 106.661C187.064 107.632 186.735 108.588 186.086 109.317C185.859 109.572 186.049 109.979 186.391 109.962L190.52 109.746L194.65 109.53C194.991 109.512 195.142 109.087 194.891 108.857Z" fill="white"/>
<path d="M190.571 110.656L188.9 110.743C189.235 111.315 189.904 111.697 190.62 111.659C191.336 111.622 191.929 111.175 192.242 110.569L190.571 110.656Z" fill="white"/>
<path d="M190.134 101.903C190.681 101.874 191.102 101.401 191.075 100.845C191.048 100.29 190.583 99.8627 190.036 99.8913C189.49 99.9198 189.069 100.393 189.096 100.949C189.123 101.504 189.588 101.931 190.134 101.903Z" fill="white"/>
<path d="M191.808 77.4687L194.436 60.398C194.982 56.8518 192.286 53.6184 188.736 53.6184H136.241C132.691 53.6184 129.994 56.8518 130.54 60.398L133.169 77.4687H191.808Z" fill="#CAD3E3"/>
<path d="M147.675 34.253C148.994 34.253 150.064 33.1634 150.064 31.8193C150.064 30.4752 148.994 29.3856 147.675 29.3856C146.355 29.3856 145.286 30.4752 145.286 31.8193C145.286 33.1634 146.355 34.253 147.675 34.253Z" fill="url(#paint2_linear_4772_3624)"/>
<path d="M121.461 100.172C122.196 100.172 122.792 99.5647 122.792 98.8159C122.792 98.067 122.196 97.46 121.461 97.46C120.726 97.46 120.13 98.067 120.13 98.8159C120.13 99.5647 120.726 100.172 121.461 100.172Z" fill="url(#paint3_linear_4772_3624)"/>
<path d="M209.421 51.7062C210.156 51.7062 210.752 51.0992 210.752 50.3503C210.752 49.6015 210.156 48.9944 209.421 48.9944C208.685 48.9944 208.089 49.6015 208.089 50.3503C208.089 51.0992 208.685 51.7062 209.421 51.7062Z" fill="url(#paint4_linear_4772_3624)"/>
<path d="M162.011 127.186C163.33 127.186 164.4 126.096 164.4 124.752C164.4 123.408 163.33 122.318 162.011 122.318C160.691 122.318 159.621 123.408 159.621 124.752C159.621 126.096 160.691 127.186 162.011 127.186Z" fill="url(#paint5_linear_4772_3624)"/>
<path d="M203.208 75.0698C204.697 75.0698 205.905 73.8401 205.905 72.3232C205.905 70.8062 204.697 69.5765 203.208 69.5765C201.719 69.5765 200.512 70.8062 200.512 72.3232C200.512 73.8401 201.719 75.0698 203.208 75.0698Z" fill="url(#paint6_linear_4772_3624)"/>
<path d="M152.624 29.3509C153.058 29.3509 153.409 28.9929 153.409 28.5512C153.409 28.1096 153.058 27.7516 152.624 27.7516C152.191 27.7516 151.839 28.1096 151.839 28.5512C151.839 28.9929 152.191 29.3509 152.624 29.3509Z" fill="url(#paint7_linear_4772_3624)"/>
<path d="M194.812 35.8523C195.245 35.8523 195.597 35.4943 195.597 35.0527C195.597 34.6111 195.245 34.2531 194.812 34.2531C194.378 34.2531 194.027 34.6111 194.027 35.0527C194.027 35.4943 194.378 35.8523 194.812 35.8523Z" fill="url(#paint8_linear_4772_3624)"/>
<path d="M144.978 117.173C145.412 117.173 145.763 116.815 145.763 116.373C145.763 115.932 145.412 115.574 144.978 115.574C144.545 115.574 144.193 115.932 144.193 116.373C144.193 116.815 144.545 117.173 144.978 117.173Z" fill="url(#paint9_linear_4772_3624)"/>
<path d="M203.208 93.6356C203.642 93.6356 203.993 93.2775 203.993 92.8359C203.993 92.3943 203.642 92.0363 203.208 92.0363C202.775 92.0363 202.423 92.3943 202.423 92.8359C202.423 93.2775 202.775 93.6356 203.208 93.6356Z" fill="url(#paint10_linear_4772_3624)"/>
<path d="M118.014 73.401C120.087 73.401 121.768 71.6887 121.768 69.5766C121.768 67.4644 120.087 65.7522 118.014 65.7522C115.94 65.7522 114.259 67.4644 114.259 69.5766C114.259 71.6887 115.94 73.401 118.014 73.401Z" fill="url(#paint11_linear_4772_3624)"/>
<defs>
<filter id="filter0_d_4772_3624" x="0" y="0" width="325" height="416" filterUnits="userSpaceOnUse" color-interpolation-filters="sRGB">
<feFlood flood-opacity="0" result="BackgroundImageFix"/>
<feColorMatrix in="SourceAlpha" type="matrix" values="0 0 0 0 0 0 0 0 0 0 0 0 0 0 0 0 0 0 127 0" result="hardAlpha"/>
<feOffset dy="4"/>
<feGaussianBlur stdDeviation="2"/>
<feComposite in2="hardAlpha" operator="out"/>
<feColorMatrix type="matrix" values="0 0 0 0 0 0 0 0 0 0 0 0 0 0 0 0 0 0 0.25 0"/>
<feBlend mode="normal" in2="BackgroundImageFix" result="effect1_dropShadow_4772_3624"/>
<feBlend mode="normal" in="SourceGraphic" in2="effect1_dropShadow_4772_3624" result="shape"/>
</filter>
<linearGradient id="paint0_linear_4772_3624" x1="158.692" y1="72.6482" x2="152.139" y2="90.1681" gradientUnits="userSpaceOnUse">
<stop stop-color="#FCCD00"/>
<stop offset="1" stop-color="#F2A900"/>
</linearGradient>
<linearGradient id="paint1_linear_4772_3624" x1="175.444" y1="73.1565" x2="168.988" y2="90.4706" gradientUnits="userSpaceOnUse">
<stop stop-color="#FCCD00"/>
<stop offset="1" stop-color="#F2A900"/>
</linearGradient>
<linearGradient id="paint2_linear_4772_3624" x1="149.217" y1="31.6485" x2="148.184" y2="34.465" gradientUnits="userSpaceOnUse">
<stop stop-color="#5DDBF7"/>
<stop offset="1" stop-color="#14ACCD"/>
</linearGradient>
<linearGradient id="paint3_linear_4772_3624" x1="122.32" y1="98.7207" x2="121.745" y2="100.29" gradientUnits="userSpaceOnUse">
<stop stop-color="#5DDBF7"/>
<stop offset="1" stop-color="#14ACCD"/>
</linearGradient>
<linearGradient id="paint4_linear_4772_3624" x1="210.28" y1="50.2551" x2="209.704" y2="51.8243" gradientUnits="userSpaceOnUse">
<stop stop-color="#5DDBF7"/>
<stop offset="1" stop-color="#14ACCD"/>
</linearGradient>
<linearGradient id="paint5_linear_4772_3624" x1="163.552" y1="124.581" x2="162.519" y2="127.398" gradientUnits="userSpaceOnUse">
<stop stop-color="#5DDBF7"/>
<stop offset="1" stop-color="#14ACCD"/>
</linearGradient>
<linearGradient id="paint6_linear_4772_3624" x1="204.948" y1="72.1303" x2="203.782" y2="75.3089" gradientUnits="userSpaceOnUse">
<stop stop-color="#5DDBF7"/>
<stop offset="1" stop-color="#14ACCD"/>
</linearGradient>
<linearGradient id="paint7_linear_4772_3624" x1="153.131" y1="28.4951" x2="152.791" y2="29.4205" gradientUnits="userSpaceOnUse">
<stop stop-color="#5DDBF7"/>
<stop offset="1" stop-color="#14ACCD"/>
</linearGradient>
<linearGradient id="paint8_linear_4772_3624" x1="195.318" y1="34.9966" x2="194.979" y2="35.922" gradientUnits="userSpaceOnUse">
<stop stop-color="#5DDBF7"/>
<stop offset="1" stop-color="#14ACCD"/>
</linearGradient>
<linearGradient id="paint9_linear_4772_3624" x1="145.485" y1="116.317" x2="145.146" y2="117.243" gradientUnits="userSpaceOnUse">
<stop stop-color="#5DDBF7"/>
<stop offset="1" stop-color="#14ACCD"/>
</linearGradient>
<linearGradient id="paint10_linear_4772_3624" x1="203.715" y1="92.7798" x2="203.376" y2="93.7052" gradientUnits="userSpaceOnUse">
<stop stop-color="#5DDBF7"/>
<stop offset="1" stop-color="#14ACCD"/>
</linearGradient>
<linearGradient id="paint11_linear_4772_3624" x1="120.437" y1="69.3081" x2="118.813" y2="73.734" gradientUnits="userSpaceOnUse">
<stop stop-color="#5DDBF7"/>
<stop offset="1" stop-color="#14ACCD"/>
</linearGradient>
</defs>
</svg>
